{
  "data": [
    {
      "acronym": "",
      "alias": "Tanz- u.Gymnast. Rennau e.V.",
      "category": "",
      "city": "Rennau",
      "country": "Deutschland",
      "location": {
        "lon": 10.906852,
        "lat": 52.295558
      },
      "logo": "https://resources.verein.rewe.de/img/20240327081559771573800.jpg",
      "organization": "Tanz- u.Gymnast. Rennau e.V.",
      "partyID": 10000004553,
      "postalCode": 38368,
      "search_term": "Tanz- u.Gymnast. Rennau e.V.  Tanz- u.Gymnast. Rennau e.V. Rennau Niedersachsen",
      "state": "Niedersachsen"
    },
    {
      "acronym": "",
      "alias": "Hildesheimer Tanz SC e.V.",
      "category": "",
      "city": "Hildesheim",
      "country": "Deutschland",
      "location": {
        "lon": 9.941146,
        "lat": 52.165773
      },
      "logo": "https://resources.verein.rewe.de/img/20240327081559771573800.jpg",
      "organization": "Hildesheimer Tanz SC e.V.",
      "partyID": 10000007349,
      "postalCode": 31137,
      "search_term": "Hildesheimer Tanz SC e.V.  Hildesheimer Tanz SC e.V. Hildesheim Niedersachsen",
      "state": "Niedersachsen"
    },
    {
      "acronym": "",
      "alias": "Schortenser Tanz Club e.V.",
      "category": "",
      "city": "Schortens",
      "country": "Deutschland",
      "location": {
        "lon": 7.915543,
        "lat": 53.542718
      },
      "logo": "https://resources.verein.rewe.de/img/20240327081559771573800.jpg",
      "organization": "Schortenser Tanz Club e.V.",
      "partyID": 10000011260,
      "postalCode": 26419,
      "search_term": "Schortenser Tanz Club e.V.  Schortenser Tanz Club e.V. Schortens Niedersachsen",
      "state": "Niedersachsen"
    },
    {
      "acronym": "",
      "alias": "Spass am Tanz e.V",
      "category": "",
      "city": "Potsdam",
      "country": "Deutschland",
      "location": {
        "lon": 13.092554,
        "lat": 52.39805920000001
      },
      "logo": "https://resources.verein.rewe.de/img/10000088404/17ce43ee49fd4f0ca48fee4eaea448f0.png",
      "organization": "Spass am Tanz e.V",
      "partyID": 10000088404,
      "postalCode": 14482,
      "search_term": "Spass am Tanz e.V  Spass am Tanz e.V Potsdam Brandenburg",
      "state": "Brandenburg"
    },
    {
      "acronym": "",
      "alias": "Der Tanz e.V. Gera",
      "category": "",
      "city": "Gera",
      "country": "Deutschland",
      "location": {
        "lon": 12.0865447,
        "lat": 50.8934839
      },
      "logo": "https://resources.verein.rewe.de/img/10000086931/680966ecee7645c7b85bbd5eb947a91c.png",
      "organization": "Der Tanz e.V. Gera",
      "partyID": 10000086931,
      "postalCode": 7546,
      "search_term": "Der Tanz e.V. Gera  Der Tanz e.V. Gera Gera Thüringen",
      "state": "Thüringen"
    },
    {
      "acronym": "",
      "alias": "Uni Tanz Kiel e.V.",
      "category": "",
      "city": "Ottendorf",
      "country": "Deutschland",
      "location": {
        "lon": 10.041474,
        "lat": 54.339407
      },
      "logo": "https://resources.verein.rewe.de/img/20240327081559771573800.jpg",
      "organization": "Uni Tanz Kiel e.V.",
      "partyID": 10000002185,
      "postalCode": 24107,
      "search_term": "Uni Tanz Kiel e.V.  Uni Tanz Kiel e.V. Ottendorf Schleswig-Holstein",
      "state": "Schleswig-Holstein"
    },
    {
      "acronym": "",
      "alias": "Tanz-SC Lehrte e.V.",
      "category": "",
      "city": "Lehrte",
      "country": "Deutschland",
      "location": {
        "lon": 9.97558,
        "lat": 52.380384
      },
      "logo": "https://resources.verein.rewe.de/img/20240327081559771573800.jpg",
      "organization": "Tanz-Sport-Club Lehrte e.V.",
      "partyID": 10000006455,
      "postalCode": 31275,
      "search_term": "Tanz-Sport-Club Lehrte e.V.  Tanz-SC Lehrte e.V. Lehrte Niedersachsen",
      "state": "Niedersachsen"
    },
    {
      "acronym": "",
      "alias": "Elementarer Tanz e. V.",
      "category": "",
      "city": "Köln",
      "country": "Deutschland",
      "location": [],
      "logo": "https://resources.verein.rewe.de/img/20240327081559771573800.jpg",
      "organization": "Elementarer Tanz e. V.",
      "partyID": 10000019029,
      "postalCode": 50841,
      "search_term": "Elementarer Tanz e. V.  Elementarer Tanz e. V. Köln Nordrhein-Westfalen",
      "state": "Nordrhein-Westfalen"
    },
    {
      "acronym": "",
      "alias": "Tanz-Sport Aglasterhausen e.V.",
      "category": "",
      "city": "Elztal",
      "country": "Deutschland",
      "location": {
        "lon": 9.207183,
        "lat": 49.426738
      },
      "logo": "https://resources.verein.rewe.de/img/20240327081559771573800.jpg",
      "organization": "Tanz-Sport Aglasterhausen e.V.",
      "partyID": 10000050889,
      "postalCode": 74834,
      "search_term": "Tanz-Sport Aglasterhausen e.V.  Tanz-Sport Aglasterhausen e.V. Elztal Baden-Württemberg",
      "state": "Baden-Württemberg"
    },
    {
      "acronym": "",
      "alias": "Tanz-SC Brunswiek RW e.V.",
      "category": "",
      "city": "Braunschweig",
      "country": "Deutschland",
      "location": {
        "lon": 10.517969,
        "lat": 52.260671
      },
      "logo": "https://resources.verein.rewe.de/img/20240327081559771573800.jpg",
      "organization": "Tanz-SC Brunswiek RW e.V.",
      "partyID": 10000003661,
      "postalCode": 38124,
      "search_term": "Tanz-SC Brunswiek RW e.V.  Tanz-SC Brunswiek RW e.V. Braunschweig Niedersachsen",
      "state": "Niedersachsen"
    },
    {
      "acronym": "",
      "alias": "Tanz - Club Bremer Süden e.V.",
      "category": "",
      "city": "Bremen",
      "country": "Deutschland",
      "location": {
        "lon": 8.79503,
        "lat": 53.066636
      },
      "logo": "https://resources.verein.rewe.de/img/20240327081559771573800.jpg",
      "organization": "Tanz - Club Bremer Süden e.V.",
      "partyID": 10000013022,
      "postalCode": 28201,
      "search_term": "Tanz - Club Bremer Süden e.V.  Tanz - Club Bremer Süden e.V. Bremen Bremen",
      "state": "Bremen"
    },
    {
      "acronym": "",
      "alias": "Casino Tanz Sportclub e. V.",
      "category": "",
      "city": "Dresden",
      "country": "Deutschland",
      "location": {
        "lon": 13.709747,
        "lat": 51.049012
      },
      "logo": "https://resources.verein.rewe.de/img/20240327081559771573800.jpg",
      "organization": "Casino Tanz Sportclub e. V.",
      "partyID": 10000017956,
      "postalCode": 1159,
      "search_term": "Casino Tanz Sportclub e. V.  Casino Tanz Sportclub e. V. Dresden Sachsen",
      "state": "Sachsen"
    },
    {
      "acronym": "",
      "alias": "Tanz- und GV Rosengarten e.V.",
      "category": "",
      "city": "Lampertheim",
      "country": "Deutschland",
      "location": {
        "lon": 8.394118,
        "lat": 49.634604
      },
      "logo": "https://resources.verein.rewe.de/img/20240327081559771573800.jpg",
      "organization": "Tanz- und Gymnastikverein Rosengarten e.V.",
      "partyID": 10000037349,
      "postalCode": 68623,
      "search_term": "Tanz- und Gymnastikverein Rosengarten e.V.  Tanz- und GV Rosengarten e.V. Lampertheim Hessen",
      "state": "Hessen"
    },
    {
      "acronym": "",
      "alias": "Tanz-Turnier-Club Erlangen e.V.",
      "category": "",
      "city": "Erlangen",
      "country": "Deutschland",
      "location": {
        "lon": 10.99976,
        "lat": 49.59965
      },
      "logo": "https://resources.verein.rewe.de/img/20240327081559771573800.jpg",
      "organization": "Tanz-Turnier-Club Erlangen e.V.",
      "partyID": 10000062776,
      "postalCode": 91054,
      "search_term": "Tanz-Turnier-Club Erlangen e.V.  Tanz-Turnier-Club Erlangen e.V. Erlangen Bayern",
      "state": "Bayern"
    },
    {
      "acronym": "",
      "alias": "Tanz & Fitness Club Döbern e.V.",
      "category": "",
      "city": "Döbern",
      "country": "Deutschland",
      "location": {
        "lon": 14.6011635,
        "lat": 51.621247
      },
      "logo": "https://resources.verein.rewe.de/img/10000073567/8c769b50b02e4b648b1d2637e2dd6ed9.png",
      "organization": "Tanz & Fitness Club Döbern e.V.",
      "partyID": 10000073567,
      "postalCode": 3159,
      "search_term": "Tanz & Fitness Club Döbern e.V.  Tanz & Fitness Club Döbern e.V. Döbern Brandenburg",
      "state": "Brandenburg"
    },
    {
      "acronym": "",
      "alias": "Tanz-SC Grimmen e.V.",
      "category": "",
      "city": "Grimmen",
      "country": "Deutschland",
      "location": {
        "lon": 13.0395866,
        "lat": 54.10736989999999
      },
      "logo": "https://resources.verein.rewe.de/img/10000074958/d134b86393bd40b7b7bbf906b6187826.png",
      "organization": "Tanz-Sport-Club Grimmen e.V.",
      "partyID": 10000074958,
      "postalCode": 18507,
      "search_term": "Tanz-Sport-Club Grimmen e.V.  Tanz-SC Grimmen e.V. Grimmen Mecklenburg-Vorpommern",
      "state": "Mecklenburg-Vorpommern"
    },
    {
      "acronym": "",
      "alias": "Tanz- und Theaterwerkstatt Pulsnitz e.V.",
      "category": "",
      "city": "Pulsnitz",
      "country": "Deutschland",
      "location": {
        "lon": 14.0104002,
        "lat": 51.1819882
      },
      "logo": "https://resources.verein.rewe.de/img/10000077250/16bdc4706abd43aca746596ffb7f0d39.png",
      "organization": "Tanz- und Theaterwerkstatt Pulsnitz e.V.",
      "partyID": 10000077250,
      "postalCode": 1896,
      "search_term": "Tanz- und Theaterwerkstatt Pulsnitz e.V.  Tanz- und Theaterwerkstatt Pulsnitz e.V. Pulsnitz Sachsen",
      "state": "Sachsen"
    },
    {
      "acronym": "",
      "alias": "Tanz und SV Barchfeld e.V.",
      "category": "",
      "city": "Barchfeld",
      "country": "Deutschland",
      "location": {
        "lon": 10.3,
        "lat": 50.8
      },
      "logo": "https://resources.verein.rewe.de/img/20240327081559771573800.jpg",
      "organization": "Tanz und Sportverein Barchfeld e.V.",
      "partyID": 10000086925,
      "postalCode": 36456,
      "search_term": "Tanz und Sportverein Barchfeld e.V.  Tanz und SV Barchfeld e.V. Barchfeld Thüringen",
      "state": "Thüringen"
    },
    {
      "acronym": "",
      "alias": "Braunschweiger Tanz-Sport-Club e.V.",
      "category": "",
      "city": "Braunschweig",
      "country": "Deutschland",
      "location": {
        "lon": 10.531651,
        "lat": 52.250067
      },
      "logo": "https://resources.verein.rewe.de/img/20240327081559771573800.jpg",
      "organization": "Braunschweiger Tanz-Sport-Club e.V.",
      "partyID": 10000003519,
      "postalCode": 38102,
      "search_term": "Braunschweiger Tanz-Sport-Club e.V.  Braunschweiger Tanz-Sport-Club e.V. Braunschweig Niedersachsen",
      "state": "Niedersachsen"
    },
    {
      "acronym": "",
      "alias": "Tanz SC Weper Hardegsen e.V.",
      "category": "",
      "city": "Kalefeld",
      "country": "Deutschland",
      "location": {
        "lon": 10.0264,
        "lat": 51.81489
      },
      "logo": "https://resources.verein.rewe.de/img/20240327081559771573800.jpg",
      "organization": "Tanz SC Weper Hardegsen e.V.",
      "partyID": 10000004681,
      "postalCode": 37589,
      "search_term": "Tanz SC Weper Hardegsen e.V.  Tanz SC Weper Hardegsen e.V. Kalefeld Niedersachsen",
      "state": "Niedersachsen"
    },
    {
      "acronym": "",
      "alias": "1. Tanz SC Rotenburg e.V.",
      "category": "",
      "city": "Sottrum",
      "country": "Deutschland",
      "location": {
        "lon": 9.239196,
        "lat": 53.105965
      },
      "logo": "https://resources.verein.rewe.de/img/20240327081559771573800.jpg",
      "organization": "1. Tanz SC Rotenburg e.V.",
      "partyID": 10000009293,
      "postalCode": 27367,
      "search_term": "1. Tanz SC Rotenburg e.V.  1. Tanz SC Rotenburg e.V. Sottrum Niedersachsen",
      "state": "Niedersachsen"
    },
    {
      "acronym": "",
      "alias": "Tanz SC Oberselters e.V.",
      "category": "",
      "city": "Bad Camberg",
      "country": "Deutschland",
      "location": {
        "lon": 8.242408,
        "lat": 50.323773
      },
      "logo": "https://resources.verein.rewe.de/img/20240327081559771573800.jpg",
      "organization": "Tanz Sport Club Oberselters e.V.",
      "partyID": 10000033164,
      "postalCode": 65520,
      "search_term": "Tanz Sport Club Oberselters e.V.  Tanz SC Oberselters e.V. Bad Camberg Hessen",
      "state": "Hessen"
    },
    {
      "acronym": "",
      "alias": "Tanz- und Kulturkreis Altenstadt e.V.",
      "category": "",
      "city": "Altenstadt",
      "country": "Deutschland",
      "location": {
        "lon": 8.941155,
        "lat": 50.28722
      },
      "logo": "https://resources.verein.rewe.de/img/20240327081559771573800.jpg",
      "organization": "Tanz- und Kulturkreis Altenstadt e.V.",
      "partyID": 10000035233,
      "postalCode": 63674,
      "search_term": "Tanz- und Kulturkreis Altenstadt e.V.  Tanz- und Kulturkreis Altenstadt e.V. Altenstadt Hessen",
      "state": "Hessen"
    },
    {
      "acronym": "",
      "alias": "Tanz- und Turnierclub München e.V.",
      "category": "",
      "city": "München",
      "country": "Deutschland",
      "location": {
        "lon": 11.442647,
        "lat": 48.150843
      },
      "logo": "https://resources.verein.rewe.de/img/20240327081559771573800.jpg",
      "organization": "Tanz- und Turnierclub München e.V.",
      "partyID": 10000057671,
      "postalCode": 81243,
      "search_term": "Tanz- und Turnierclub München e.V.  Tanz- und Turnierclub München e.V. München Bayern",
      "state": "Bayern"
    },
    {
      "acronym": "",
      "alias": "Tanz Akademie Berlin e. V.",
      "category": "",
      "city": "Berlin",
      "country": "Deutschland",
      "location": {
        "lon": 13.274737,
        "lat": 52.512442
      },
      "logo": "https://resources.verein.rewe.de/img/20240327081559771573800.jpg",
      "organization": "Tanz Akademie Berlin e. V.",
      "partyID": 10000070550,
      "postalCode": 14050,
      "search_term": "Tanz Akademie Berlin e. V.  Tanz Akademie Berlin e. V. Berlin Berlin",
      "state": "Berlin"
    },
    {
      "acronym": "",
      "alias": "Show-Tanz-Formation Döbeln e.V.",
      "category": "",
      "city": "Döbeln",
      "country": "Deutschland",
      "location": {
        "lon": 13.114163,
        "lat": 51.119673
      },
      "logo": "https://resources.verein.rewe.de/img/20240327081559771573800.jpg",
      "organization": "Show-Tanz-Formation Döbeln e.V.",
      "partyID": 10000078902,
      "postalCode": 4720,
      "search_term": "Show-Tanz-Formation Döbeln e.V.  Show-Tanz-Formation Döbeln e.V. Döbeln Sachsen",
      "state": "Sachsen"
    },
    {
      "acronym": "",
      "alias": "Tanz und Bewegung e.V.",
      "category": "",
      "city": "Halle (Saale)",
      "country": "Deutschland",
      "location": {
        "lon": 11.973429,
        "lat": 51.493766
      },
      "logo": "https://resources.verein.rewe.de/img/20240327081559771573800.jpg",
      "organization": "Tanz und Bewegung e.V.",
      "partyID": 10000083396,
      "postalCode": 6114,
      "search_term": "Tanz und Bewegung e.V.  Tanz und Bewegung e.V. Halle (Saale) Sachsen-Anhalt",
      "state": "Sachsen-Anhalt"
    },
    {
      "acronym": "",
      "alias": "Tanz-und Gymnastik e.V. Köstritz",
      "category": "",
      "city": "Tautenhain",
      "country": "Deutschland",
      "location": {
        "lon": 11.915098,
        "lat": 50.924967
      },
      "logo": "https://resources.verein.rewe.de/img/20240327081559771573800.jpg",
      "organization": "Tanz-und Gymnastik e.V. Köstritz",
      "partyID": 10000084827,
      "postalCode": 7639,
      "search_term": "Tanz-und Gymnastik e.V. Köstritz  Tanz-und Gymnastik e.V. Köstritz Tautenhain Thüringen",
      "state": "Thüringen"
    },
    {
      "acronym": "",
      "alias": "Michendorfer Tanz- und TV e.V.",
      "category": "",
      "city": "Michendorf",
      "country": "Deutschland",
      "location": {
        "lon": 13.018876,
        "lat": 52.313285
      },
      "logo": "https://resources.verein.rewe.de/img/10000088913/56616047dc444cb386a9fe35a5b9b5bb.png",
      "organization": "Michendorfer Tanz- und Turnverein e.V.",
      "partyID": 10000088913,
      "postalCode": 14552,
      "search_term": "Michendorfer Tanz- und Turnverein e.V.  Michendorfer Tanz- und TV e.V. Michendorf Brandenburg",
      "state": "Brandenburg"
    },
    {
      "acronym": "",
      "alias": "Tanz- und Bewegungsverein Bettmar e.V.",
      "category": "",
      "city": "Vechelde",
      "country": "Deutschland",
      "location": {
        "lon": 10.326139,
        "lat": 52.260013
      },
      "logo": "https://resources.verein.rewe.de/img/20240327081559771573800.jpg",
      "organization": "Tanz- und Bewegungsverein Bettmar e.V.",
      "partyID": 10000005077,
      "postalCode": 38159,
      "search_term": "Tanz- und Bewegungsverein Bettmar e.V.  Tanz- und Bewegungsverein Bettmar e.V. Vechelde Niedersachsen",
      "state": "Niedersachsen"
    },
    {
      "acronym": "",
      "alias": "Tanz SC GW Diepholz e.V.",
      "category": "",
      "city": "Diepholz",
      "country": "Deutschland",
      "location": {
        "lon": 8.391352,
        "lat": 52.604335
      },
      "logo": "https://resources.verein.rewe.de/img/20240327081559771573800.jpg",
      "organization": "Tanz SC GW Diepholz e.V.",
      "partyID": 10000005724,
      "postalCode": 49356,
      "search_term": "Tanz SC GW Diepholz e.V.  Tanz SC GW Diepholz e.V. Diepholz Niedersachsen",
      "state": "Niedersachsen"
    },
    {
      "acronym": "",
      "alias": "Hirzsteiner Tanz- und Trachtenver.e.v. Elg",
      "category": "",
      "city": "Baunatal",
      "country": "Deutschland",
      "location": {
        "lon": 9.393839,
        "lat": 51.249154
      },
      "logo": "https://resources.verein.rewe.de/img/20240327081559771573800.jpg",
      "organization": "Hirzsteiner Tanz- und Trachtenver.e.v. Elg",
      "partyID": 10000038435,
      "postalCode": 34225,
      "search_term": "Hirzsteiner Tanz- und Trachtenver.e.v. Elg  Hirzsteiner Tanz- und Trachtenver.e.v. Elg Baunatal Hessen",
      "state": "Hessen"
    },
    {
      "acronym": "",
      "alias": "Tanz-SC Nentershausen e.V.",
      "category": "",
      "city": "Montabaur",
      "country": "Deutschland",
      "location": [],
      "logo": "https://resources.verein.rewe.de/img/20240327081559771573800.jpg",
      "organization": "Tanz-Sport-Club Nentershausen e.V.",
      "partyID": 10000042269,
      "postalCode": 56403,
      "search_term": "Tanz-Sport-Club Nentershausen e.V.  Tanz-SC Nentershausen e.V. Montabaur Rheinland-Pfalz",
      "state": "Rheinland-Pfalz"
    },
    {
      "acronym": "",
      "alias": "Tanz Ensemble Chemnitz e. V.",
      "category": "",
      "city": "Chemnitz",
      "country": "Deutschland",
      "location": {
        "lon": 12.887502,
        "lat": 50.890974
      },
      "logo": "https://resources.verein.rewe.de/img/20240327081559771573800.jpg",
      "organization": "Tanz Ensemble Chemnitz e. V.",
      "partyID": 10000076043,
      "postalCode": 9228,
      "search_term": "Tanz Ensemble Chemnitz e. V.  Tanz Ensemble Chemnitz e. V. Chemnitz Sachsen",
      "state": "Sachsen"
    },
    {
      "acronym": "",
      "alias": "Tanz Mit Mir e.V.",
      "category": "",
      "city": "Halle (Saale)",
      "country": "Deutschland",
      "location": {
        "lon": 11.966337,
        "lat": 51.482464
      },
      "logo": "https://resources.verein.rewe.de/img/20240327081559771573800.jpg",
      "organization": "Tanz Mit Mir e.V.",
      "partyID": 10000083419,
      "postalCode": 6108,
      "search_term": "Tanz Mit Mir e.V.  Tanz Mit Mir e.V. Halle (Saale) Sachsen-Anhalt",
      "state": "Sachsen-Anhalt"
    },
    {
      "acronym": "",
      "alias": "Tanz-und Sportclub Zwenkau e.V.",
      "category": "",
      "city": "Zwenkau",
      "country": "Deutschland",
      "location": {
        "lon": 12.3333852,
        "lat": 51.2228871
      },
      "logo": "https://resources.verein.rewe.de/img/20240327081559771573800.jpg",
      "organization": "Tanz-und Sportclub Zwenkau e.V.",
      "partyID": 10000078339,
      "postalCode": 4442,
      "search_term": "Tanz-und Sportclub Zwenkau e.V.  Tanz-und Sportclub Zwenkau e.V. Zwenkau Sachsen",
      "state": "Sachsen"
    },
    {
      "acronym": "",
      "alias": "Gießener Tanz-Club 74 e.V.",
      "category": "",
      "city": "Gießen",
      "country": "Deutschland",
      "location": {
        "lon": 8.648071400000001,
        "lat": 50.5685434
      },
      "logo": "https://resources.verein.rewe.de/img/20240327081559771573800.jpg",
      "organization": "Gießener Tanz-Club 74 e.V.",
      "partyID": 10000032330,
      "postalCode": 35398,
      "search_term": "Gießener Tanz-Club 74 e.V.  Gießener Tanz-Club 74 e.V. Gießen Hessen",
      "state": "Hessen"
    },
    {
      "acronym": "",
      "alias": "Förde-Tanz-Klub Flensburg e.V.",
      "category": "",
      "city": "Flensburg",
      "country": "Deutschland",
      "location": {
        "lon": 9.403012,
        "lat": 54.755985
      },
      "logo": "https://resources.verein.rewe.de/img/20240327081559771573800.jpg",
      "organization": "Förde-Tanz-Klub Flensburg e.V.",
      "partyID": 10000001786,
      "postalCode": 24941,
      "search_term": "Förde-Tanz-Klub Flensburg e.V.  Förde-Tanz-Klub Flensburg e.V. Flensburg Schleswig-Holstein",
      "state": "Schleswig-Holstein"
    },
    {
      "acronym": "",
      "alias": "Tanz SC in Hannover e.V.",
      "category": "",
      "city": "Springe",
      "country": "Deutschland",
      "location": {
        "lon": 9.545688,
        "lat": 52.209968
      },
      "logo": "https://resources.verein.rewe.de/img/20240327081559771573800.jpg",
      "organization": "Tanz Sport Club in Hannover e.V.",
      "partyID": 10000007116,
      "postalCode": 31832,
      "search_term": "Tanz Sport Club in Hannover e.V.  Tanz SC in Hannover e.V. Springe Niedersachsen",
      "state": "Niedersachsen"
    },
    {
      "acronym": "",
      "alias": "Tanz Sport Club Haren e.V.",
      "category": "",
      "city": "Haren (Ems)",
      "country": "Deutschland",
      "location": {
        "lon": 7.238333,
        "lat": 52.789805
      },
      "logo": "https://resources.verein.rewe.de/img/20240327081559771573800.jpg",
      "organization": "Tanz Sport Club Haren e.V.",
      "partyID": 10000010919,
      "postalCode": 49733,
      "search_term": "Tanz Sport Club Haren e.V.  Tanz Sport Club Haren e.V. Haren (Ems) Niedersachsen",
      "state": "Niedersachsen"
    },
    {
      "acronym": "",
      "alias": "Gem. f. Seniorengym. Tanz e.V.",
      "category": "",
      "city": "Karlsruhe",
      "country": "Deutschland",
      "location": {
        "lon": 8.425439,
        "lat": 49.010572
      },
      "logo": "https://resources.verein.rewe.de/img/20240327081559771573800.jpg",
      "organization": "Gem. f. Seniorengym. Tanz e.V.",
      "partyID": 10000052327,
      "postalCode": 76131,
      "search_term": "Gem. f. Seniorengym. Tanz e.V.  Gem. f. Seniorengym. Tanz e.V. Karlsruhe Baden-Württemberg",
      "state": "Baden-Württemberg"
    },
    {
      "acronym": "",
      "alias": "Tanz- und SC Roth e.V.",
      "category": "",
      "city": "Roth",
      "country": "Deutschland",
      "location": {
        "lon": 11.058309,
        "lat": 49.239412
      },
      "logo": "https://resources.verein.rewe.de/img/20240327081559771573800.jpg",
      "organization": "Tanz- und Sport-Club Roth e.V.",
      "partyID": 10000063427,
      "postalCode": 91154,
      "search_term": "Tanz- und Sport-Club Roth e.V.  Tanz- und SC Roth e.V. Roth Bayern",
      "state": "Bayern"
    },
    {
      "acronym": "",
      "alias": "Haldensleber-Tanz-Club Roland e.V.",
      "category": "",
      "city": "Flechtingen",
      "country": "Deutschland",
      "location": {
        "lon": 11.459287,
        "lat": 52.273344
      },
      "logo": "https://resources.verein.rewe.de/img/20240327081559771573800.jpg",
      "organization": "Haldensleber-Tanz-Club Roland e.V.",
      "partyID": 10000080884,
      "postalCode": 39345,
      "search_term": "Haldensleber-Tanz-Club Roland e.V.  Haldensleber-Tanz-Club Roland e.V. Flechtingen Sachsen-Anhalt",
      "state": "Sachsen-Anhalt"
    },
    {
      "acronym": "",
      "alias": "Rostocker Tanz- und Fitnessclub e.V.",
      "category": "",
      "city": "Rostock",
      "country": "Deutschland",
      "location": {
        "lon": 12.087131,
        "lat": 54.1714783
      },
      "logo": "https://resources.verein.rewe.de/img/20240327081559771573800.jpg",
      "organization": "Rostocker Tanz- und Fitnessclub e.V.",
      "partyID": 10000074188,
      "postalCode": 18119,
      "search_term": "Rostocker Tanz- und Fitnessclub e.V.  Rostocker Tanz- und Fitnessclub e.V. Rostock Mecklenburg-Vorpommern",
      "state": "Mecklenburg-Vorpommern"
    },
    {
      "acronym": "",
      "alias": "Tanz-Sport Teuto e. V.",
      "category": "",
      "city": "Borgholzhausen",
      "country": "Deutschland",
      "location": {
        "lon": 8.270338,
        "lat": 52.085417
      },
      "logo": "https://resources.verein.rewe.de/img/20240327081559771573800.jpg",
      "organization": "Tanz-Sport Teuto e. V.",
      "partyID": 10000025317,
      "postalCode": 33829,
      "search_term": "Tanz-Sport Teuto e. V.  Tanz-Sport Teuto e. V. Borgholzhausen Nordrhein-Westfalen",
      "state": "Nordrhein-Westfalen"
    },
    {
      "acronym": "",
      "alias": "Tanz-Zentrum Ludwigshafen e.V.",
      "category": "",
      "city": "Ludwigshafen am Rhein",
      "country": "Deutschland",
      "location": {
        "lon": 8.390266,
        "lat": 49.535926
      },
      "logo": "https://resources.verein.rewe.de/img/20240327081559771573800.jpg",
      "organization": "Tanz-Zentrum Ludwigshafen e.V.",
      "partyID": 10000044060,
      "postalCode": 67069,
      "search_term": "Tanz-Zentrum Ludwigshafen e.V.  Tanz-Zentrum Ludwigshafen e.V. Ludwigshafen am Rhein Rheinland-Pfalz",
      "state": "Rheinland-Pfalz"
    },
    {
      "acronym": "",
      "alias": "Tanz- und SC Hochstadt e.V.",
      "category": "",
      "city": "Hochstadt",
      "country": "Deutschland",
      "location": {
        "lon": 8.208603,
        "lat": 49.238838
      },
      "logo": "https://resources.verein.rewe.de/img/20240327081559771573800.jpg",
      "organization": "Tanz- und Sportclub Hochstadt e.V.",
      "partyID": 10000044253,
      "postalCode": 76879,
      "search_term": "Tanz- und Sportclub Hochstadt e.V.  Tanz- und SC Hochstadt e.V. Hochstadt Rheinland-Pfalz",
      "state": "Rheinland-Pfalz"
    },
    {
      "acronym": "",
      "alias": "Tanz- und SV Magdeburg e.V.",
      "category": "",
      "city": "Magdeburg",
      "country": "Deutschland",
      "location": {
        "lon": 11.6392212,
        "lat": 52.1460258
      },
      "logo": "https://resources.verein.rewe.de/img/10000083119/61dcb56611ba431bb4f403c3b783ecf0.png",
      "organization": "Tanz- und Sportverein Magdeburg e.V.",
      "partyID": 10000083119,
      "postalCode": 39106,
      "search_term": "Tanz- und Sportverein Magdeburg e.V.  Tanz- und SV Magdeburg e.V. Magdeburg Sachsen-Anhalt",
      "state": "Sachsen-Anhalt"
    },
    {
      "acronym": "",
      "alias": "Tanz-Centrum Coesfeld e. V.",
      "category": "",
      "city": "Coesfeld",
      "country": "Deutschland",
      "location": {
        "lon": 7.169887,
        "lat": 51.919875
      },
      "logo": "https://resources.verein.rewe.de/img/20240327081559771573800.jpg",
      "organization": "Tanz-Centrum Coesfeld e. V.",
      "partyID": 10000023484,
      "postalCode": 48653,
      "search_term": "Tanz-Centrum Coesfeld e. V.  Tanz-Centrum Coesfeld e. V. Coesfeld Nordrhein-Westfalen",
      "state": "Nordrhein-Westfalen"
    },
    {
      "acronym": "",
      "alias": "Taunus-Tanz-SC Kronberg e.V.",
      "category": "",
      "city": "Kronberg",
      "country": "Deutschland",
      "location": {
        "lon": 8.527923,
        "lat": 50.172546
      },
      "logo": "https://resources.verein.rewe.de/img/20240327081559771573800.jpg",
      "organization": "Taunus-Tanz-Sport-Club Kronberg e.V.",
      "partyID": 10000036503,
      "postalCode": 61476,
      "search_term": "Taunus-Tanz-Sport-Club Kronberg e.V.  Taunus-Tanz-SC Kronberg e.V. Kronberg Hessen",
      "state": "Hessen"
    },
    {
      "acronym": "",
      "alias": "Tanz-Club RW Kaiserslautern e.V.",
      "category": "",
      "city": "Kaiserslautern",
      "country": "Deutschland",
      "location": {
        "lon": 7.727306,
        "lat": 49.429716
      },
      "logo": "https://resources.verein.rewe.de/img/20240327081559771573800.jpg",
      "organization": "Tanz-Club RW Kaiserslautern e.V.",
      "partyID": 10000042773,
      "postalCode": 67663,
      "search_term": "Tanz-Club RW Kaiserslautern e.V.  Tanz-Club RW Kaiserslautern e.V. Kaiserslautern Rheinland-Pfalz",
      "state": "Rheinland-Pfalz"
    },
    {
      "acronym": "",
      "alias": "Tanz- und Gymnastikgruppe Hanum e.V.",
      "category": "",
      "city": "Jübar",
      "country": "Deutschland",
      "location": {
        "lon": 10.911568,
        "lat": 52.687405
      },
      "logo": "https://resources.verein.rewe.de/img/20240327081559771573800.jpg",
      "organization": "Tanz- und Gymnastikgruppe Hanum e.V.",
      "partyID": 10000080519,
      "postalCode": 38489,
      "search_term": "Tanz- und Gymnastikgruppe Hanum e.V.  Tanz- und Gymnastikgruppe Hanum e.V. Jübar Sachsen-Anhalt",
      "state": "Sachsen-Anhalt"
    },
    {
      "acronym": "",
      "alias": "Tanz- und Gymnastikverein Biebelnheim e.V.",
      "category": "",
      "city": "Biebelnheim",
      "country": "Deutschland",
      "location": {
        "lon": 8.172977900000001,
        "lat": 49.7964367
      },
      "logo": "https://resources.verein.rewe.de/img/10000044933/cf7fec86726843ef8f248e89fca6b39f.png",
      "organization": "Tanz- und Gymnastikverein Biebelnheim e.V.",
      "partyID": 10000044933,
      "postalCode": 55234,
      "search_term": "Tanz- und Gymnastikverein Biebelnheim e.V.  Tanz- und Gymnastikverein Biebelnheim e.V. Biebelnheim Rheinland-Pfalz",
      "state": "Rheinland-Pfalz"
    },
    {
      "acronym": "",
      "alias": "Tanz Sport Academy Allround e.V.",
      "category": "",
      "city": "Dallgow-Döberitz",
      "country": "Deutschland",
      "location": {
        "lon": 13.0618922,
        "lat": 52.5405246
      },
      "logo": "https://resources.verein.rewe.de/img/10000086981/4dd94656b31d4964980413685730a1ee.png",
      "organization": "Tanz Sport Academy Allround e.V.",
      "partyID": 10000086981,
      "postalCode": 14624,
      "search_term": "Tanz Sport Academy Allround e.V.  Tanz Sport Academy Allround e.V. Dallgow-Döberitz Brandenburg",
      "state": "Brandenburg"
    },
    {
      "acronym": "",
      "alias": "Tanz- und Sportbühne Ludwigshafen e.V.",
      "category": "",
      "city": "Mutterstadt",
      "country": "Deutschland",
      "location": {
        "lon": 8.347536,
        "lat": 49.444018
      },
      "logo": "https://resources.verein.rewe.de/img/10000043974/f1fc16e9f8c04360b0d8b12c111fdc5d.png",
      "organization": "Tanz- und Sportbühne Ludwigshafen e.V.",
      "partyID": 10000043974,
      "postalCode": 67112,
      "search_term": "Tanz- und Sportbühne Ludwigshafen e.V.  Tanz- und Sportbühne Ludwigshafen e.V. Mutterstadt Rheinland-Pfalz",
      "state": "Rheinland-Pfalz"
    },
    {
      "acronym": "",
      "alias": "Karawane Tanz- und Kulturgemeinschaft e.V.",
      "category": "",
      "city": "Leinfelden-Echterdingen",
      "country": "Deutschland",
      "location": {
        "lon": 9.170022,
        "lat": 48.670497
      },
      "logo": "https://resources.verein.rewe.de/img/20240327081559771573800.jpg",
      "organization": "Karawane Tanz- und Kulturgemeinschaft e.V.",
      "partyID": 10000046609,
      "postalCode": 70771,
      "search_term": "Karawane Tanz- und Kulturgemeinschaft e.V.  Karawane Tanz- und Kulturgemeinschaft e.V. Leinfelden-Echterdingen Baden-Württemberg",
      "state": "Baden-Württemberg"
    },
    {
      "acronym": "",
      "alias": "OrientTaDe e.V. Orientalischer Tanz Dessau",
      "category": "",
      "city": "Dessau-Roßlau",
      "country": "Deutschland",
      "location": {
        "lon": 12.241561,
        "lat": 51.888587
      },
      "logo": "https://resources.verein.rewe.de/img/20240327081559771573800.jpg",
      "organization": "OrientTaDe e.V. Orientalischer Tanz Dessau",
      "partyID": 10000083230,
      "postalCode": 6862,
      "search_term": "OrientTaDe e.V. Orientalischer Tanz Dessau  OrientTaDe e.V. Orientalischer Tanz Dessau Dessau-Roßlau Sachsen-Anhalt",
      "state": "Sachsen-Anhalt"
    },
    {
      "acronym": "",
      "alias": "Studio77 Tanz- und Musicalschule Luckau e.V.",
      "category": "",
      "city": "Luckau",
      "country": "Deutschland",
      "location": {
        "lon": 13.712837,
        "lat": 51.854572
      },
      "logo": "https://resources.verein.rewe.de/img/20240327081559771573800.jpg",
      "organization": "Studio77 Tanz- und Musicalschule Luckau e.V.",
      "partyID": 10000087931,
      "postalCode": 15926,
      "search_term": "Studio77 Tanz- und Musicalschule Luckau e.V.  Studio77 Tanz- und Musicalschule Luckau e.V. Luckau Brandenburg",
      "state": "Brandenburg"
    },
    {
      "acronym": "",
      "alias": "Tanz-Sport-Gruppe Rixdorf e. V.",
      "category": "",
      "city": "Berlin",
      "country": "Deutschland",
      "location": {
        "lon": 13.505913,
        "lat": 52.403658
      },
      "logo": "https://resources.verein.rewe.de/img/20240327081559771573800.jpg",
      "organization": "Tanz-Sport-Gruppe Rixdorf e. V.",
      "partyID": 10000070567,
      "postalCode": 12355,
      "search_term": "Tanz-Sport-Gruppe Rixdorf e. V.  Tanz-Sport-Gruppe Rixdorf e. V. Berlin Berlin",
      "state": "Berlin"
    },
    {
      "acronym": "",
      "alias": "Tanz- und Sportclub Leipzig Südost e.V.",
      "category": "",
      "city": "Leipzig",
      "country": "Deutschland",
      "location": {
        "lon": 12.41134,
        "lat": 51.334529
      },
      "logo": "https://resources.verein.rewe.de/img/20240327081559771573800.jpg",
      "organization": "Tanz- und Sportclub Leipzig Südost e.V.",
      "partyID": 10000076676,
      "postalCode": 4318,
      "search_term": "Tanz- und Sportclub Leipzig Südost e.V.  Tanz- und Sportclub Leipzig Südost e.V. Leipzig Sachsen",
      "state": "Sachsen"
    },
    {
      "acronym": "",
      "alias": "IN-KA Orientalischer Tanz e.V.",
      "category": "",
      "city": "Dessau-Roßlau",
      "country": "Deutschland",
      "location": {
        "lon": 12.224659,
        "lat": 51.8311
      },
      "logo": "https://resources.verein.rewe.de/img/20240327081559771573800.jpg",
      "organization": "IN-KA Orientalischer Tanz e.V.",
      "partyID": 10000083219,
      "postalCode": 6847,
      "search_term": "IN-KA Orientalischer Tanz e.V.  IN-KA Orientalischer Tanz e.V. Dessau-Roßlau Sachsen-Anhalt",
      "state": "Sachsen-Anhalt"
    },
    {
      "acronym": "",
      "alias": "Tanz-SC Ober-Ramstadt e.V.",
      "category": "",
      "city": "Ober-Ramstadt",
      "country": "Deutschland",
      "location": {
        "lon": 8.754196,
        "lat": 49.831335
      },
      "logo": "https://resources.verein.rewe.de/img/20240327081559771573800.jpg",
      "organization": "Tanz-Sport-Club Ober-Ramstadt e.V.",
      "partyID": 10000036760,
      "postalCode": 64372,
      "search_term": "Tanz-Sport-Club Ober-Ramstadt e.V.  Tanz-SC Ober-Ramstadt e.V. Ober-Ramstadt Hessen",
      "state": "Hessen"
    },
    {
      "acronym": "",
      "alias": "Western Tanz-SV Country Family e.V.",
      "category": "",
      "city": "Marktbreit",
      "country": "Deutschland",
      "location": {
        "lon": 10.154305,
        "lat": 49.665253
      },
      "logo": "https://resources.verein.rewe.de/img/20240327081559771573800.jpg",
      "organization": "Western Tanz-Sportverein Country Family e.V.",
      "partyID": 10000065187,
      "postalCode": 97340,
      "search_term": "Western Tanz-Sportverein Country Family e.V.  Western Tanz-SV Country Family e.V. Marktbreit Bayern",
      "state": "Bayern"
    },
    {
      "acronym": "",
      "alias": "St. Andreasberger Tanz- und Ballettfreunde e.V.",
      "category": "",
      "city": "St. Andreasberg",
      "country": "Deutschland",
      "location": {
        "lon": 10.50806,
        "lat": 51.70988
      },
      "logo": "https://resources.verein.rewe.de/img/20240327081559771573800.jpg",
      "organization": "St. Andreasberger Tanz- und Ballettfreunde e.V.",
      "partyID": 10000003956,
      "postalCode": 37444,
      "search_term": "St. Andreasberger Tanz- und Ballettfreunde e.V.  St. Andreasberger Tanz- und Ballettfreunde e.V. St. Andreasberg Niedersachsen",
      "state": "Niedersachsen"
    },
    {
      "acronym": "",
      "alias": "Tanz-Sport-Gemeinschaft Hamm e. V.",
      "category": "",
      "city": "Hamm",
      "country": "Deutschland",
      "location": [],
      "logo": "https://resources.verein.rewe.de/img/20240327081559771573800.jpg",
      "organization": "Tanz-Sport-Gemeinschaft Hamm e. V.",
      "partyID": 10000028532,
      "postalCode": 59015,
      "search_term": "Tanz-Sport-Gemeinschaft Hamm e. V.  Tanz-Sport-Gemeinschaft Hamm e. V. Hamm Nordrhein-Westfalen",
      "state": "Nordrhein-Westfalen"
    },
    {
      "acronym": "",
      "alias": "Tanz-SC Trier Tr iris e.V.",
      "category": "",
      "city": "Trier",
      "country": "Deutschland",
      "location": {
        "lon": 6.646099,
        "lat": 49.741046
      },
      "logo": "https://resources.verein.rewe.de/img/20240327081559771573800.jpg",
      "organization": "Tanz-SC Trier Tr iris e.V.",
      "partyID": 10000041713,
      "postalCode": 54295,
      "search_term": "Tanz-SC Trier Tr iris e.V.  Tanz-SC Trier Tr iris e.V. Trier Rheinland-Pfalz",
      "state": "Rheinland-Pfalz"
    },
    {
      "acronym": "",
      "alias": "Tanz und Sportverein a.k. Sasbach e.V.",
      "category": "",
      "city": "Sasbach",
      "country": "Deutschland",
      "location": {
        "lon": 7.617493,
        "lat": 48.140118
      },
      "logo": "https://resources.verein.rewe.de/img/20240327081559771573800.jpg",
      "organization": "Tanz und Sportverein a.k. Sasbach e.V.",
      "partyID": 10000087858,
      "postalCode": 79361,
      "search_term": "Tanz und Sportverein a.k. Sasbach e.V.  Tanz und Sportverein a.k. Sasbach e.V. Sasbach Baden-Württemberg",
      "state": "Baden-Württemberg"
    },
    {
      "acronym": "",
      "alias": "Tanz-Corps Burggarde Spich e. V.",
      "category": "",
      "city": "Troisdorf",
      "country": "Deutschland",
      "location": {
        "lon": 7.126856,
        "lat": 50.827063
      },
      "logo": "https://resources.verein.rewe.de/img/10000022390/d5bd3f3476b04398b301857d98656f68.png",
      "organization": "Tanz-Corps Burggarde Spich e. V.",
      "partyID": 10000022390,
      "postalCode": 53842,
      "search_term": "Tanz-Corps Burggarde Spich e. V.  Tanz-Corps Burggarde Spich e. V. Troisdorf Nordrhein-Westfalen",
      "state": "Nordrhein-Westfalen"
    },
    {
      "acronym": "",
      "alias": "Tanz SV Raga Bürgel e.V.",
      "category": "",
      "city": "Offenbach am Main",
      "country": "Deutschland",
      "location": {
        "lon": 8.787333199999999,
        "lat": 50.126044
      },
      "logo": "https://resources.verein.rewe.de/img/10000036061/4331c14988f64630870263c1ba765b6d.png",
      "organization": "Tanz Sport Verein Raga Bürgel e.V.",
      "partyID": 10000036061,
      "postalCode": 63075,
      "search_term": "Tanz Sport Verein Raga Bürgel e.V.  Tanz SV Raga Bürgel e.V. Offenbach am Main Hessen",
      "state": "Hessen"
    },
    {
      "acronym": "",
      "alias": "Tanz- und Majorettengarde GW Hardterbroich e.V.",
      "category": "",
      "city": "Hückelhoven",
      "country": "Deutschland",
      "location": {
        "lon": 6.193949,
        "lat": 51.058019
      },
      "logo": "https://resources.verein.rewe.de/img/20240327081559771573800.jpg",
      "organization": "Tanz- und Majorettengarde GW Hardterbroich e.V.",
      "partyID": 10000014785,
      "postalCode": 41836,
      "search_term": "Tanz- und Majorettengarde GW Hardterbroich e.V.  Tanz- und Majorettengarde GW Hardterbroich e.V. Hückelhoven Nordrhein-Westfalen",
      "state": "Nordrhein-Westfalen"
    },
    {
      "acronym": "",
      "alias": "Tanz-Kultur-Kreis Regenbogen e. V.",
      "category": "",
      "city": "Düren",
      "country": "Deutschland",
      "location": [],
      "logo": "https://resources.verein.rewe.de/img/20240327081559771573800.jpg",
      "organization": "Tanz-Kultur-Kreis Regenbogen e. V.",
      "partyID": 10000019898,
      "postalCode": 52351,
      "search_term": "Tanz-Kultur-Kreis Regenbogen e. V.  Tanz-Kultur-Kreis Regenbogen e. V. Düren Nordrhein-Westfalen",
      "state": "Nordrhein-Westfalen"
    },
    {
      "acronym": "",
      "alias": "Tanz-Show-Garde Dorsten e. V.",
      "category": "",
      "city": "Dorsten",
      "country": "Deutschland",
      "location": {
        "lon": 6.95956,
        "lat": 51.675688
      },
      "logo": "https://resources.verein.rewe.de/img/20240327081559771573800.jpg",
      "organization": "Tanz-Show-Garde Dorsten e. V.",
      "partyID": 10000024137,
      "postalCode": 46284,
      "search_term": "Tanz-Show-Garde Dorsten e. V.  Tanz-Show-Garde Dorsten e. V. Dorsten Nordrhein-Westfalen",
      "state": "Nordrhein-Westfalen"
    },
    {
      "acronym": "",
      "alias": "Tanz und Bewegung Heessen e. V.",
      "category": "",
      "city": "Hamm",
      "country": "Deutschland",
      "location": {
        "lon": 7.82332,
        "lat": 51.717658
      },
      "logo": "https://resources.verein.rewe.de/img/20240327081559771573800.jpg",
      "organization": "Tanz und Bewegung Heessen e. V.",
      "partyID": 10000028621,
      "postalCode": 59073,
      "search_term": "Tanz und Bewegung Heessen e. V.  Tanz und Bewegung Heessen e. V. Hamm Nordrhein-Westfalen",
      "state": "Nordrhein-Westfalen"
    },
    {
      "acronym": "",
      "alias": "Ruhr-Tanz-Club Witten e. V.",
      "category": "",
      "city": "Witten",
      "country": "Deutschland",
      "location": {
        "lon": 7.340688,
        "lat": 51.437479
      },
      "logo": "https://resources.verein.rewe.de/img/20240327081559771573800.jpg",
      "organization": "Ruhr-Tanz-Club Witten e. V.",
      "partyID": 10000029207,
      "postalCode": 58452,
      "search_term": "Ruhr-Tanz-Club Witten e. V.  Ruhr-Tanz-Club Witten e. V. Witten Nordrhein-Westfalen",
      "state": "Nordrhein-Westfalen"
    },
    {
      "acronym": "",
      "alias": "Tanz SC Telos Frankfurt e.V.",
      "category": "",
      "city": "Frankfurt am Main",
      "country": "Deutschland",
      "location": [],
      "logo": "https://resources.verein.rewe.de/img/20240327081559771573800.jpg",
      "organization": "Tanz Sport Club Telos Frankfurt e.V.",
      "partyID": 10000034508,
      "postalCode": 60021,
      "search_term": "Tanz Sport Club Telos Frankfurt e.V.  Tanz SC Telos Frankfurt e.V. Frankfurt am Main Hessen",
      "state": "Hessen"
    },
    {
      "acronym": "",
      "alias": "Tanz- und FC Tausendfüßler Baden e.V.",
      "category": "",
      "city": "Mannheim",
      "country": "Deutschland",
      "location": {
        "lon": 8.479946,
        "lat": 49.46634
      },
      "logo": "https://resources.verein.rewe.de/img/20240327081559771573800.jpg",
      "organization": "Tanz- und Freizeitclub Tausendfüßler Baden e.V.",
      "partyID": 10000051800,
      "postalCode": 68199,
      "search_term": "Tanz- und Freizeitclub Tausendfüßler Baden e.V.  Tanz- und FC Tausendfüßler Baden e.V. Mannheim Baden-Württemberg",
      "state": "Baden-Württemberg"
    },
    {
      "acronym": "",
      "alias": "Twirling Musik Tanz Verein Warstein e.V.",
      "category": "",
      "city": "Warstein",
      "country": "Deutschland",
      "location": {
        "lon": 8.2754774,
        "lat": 51.4925469
      },
      "logo": "https://resources.verein.rewe.de/img/10000088586/d462da70b6354c67bad2ac29def2b6a2.png",
      "organization": "Twirling Musik Tanz Verein Warstein e.V.",
      "partyID": 10000088586,
      "postalCode": 59581,
      "search_term": "Twirling Musik Tanz Verein Warstein e.V.  Twirling Musik Tanz Verein Warstein e.V. Warstein Nordrhein-Westfalen",
      "state": "Nordrhein-Westfalen"
    },
    {
      "acronym": "",
      "alias": "Tanz SC Gisingen-Brotdorf 1993 e.V.",
      "category": "",
      "city": "Beckingen",
      "country": "Deutschland",
      "location": {
        "lon": 6.763929999999999,
        "lat": 49.45208
      },
      "logo": "https://resources.verein.rewe.de/img/10000067577/1d1d511e197142828403306c25526708.png",
      "organization": "Tanz Sport Club Gisingen-Brotdorf 1993 e.V.",
      "partyID": 10000067577,
      "postalCode": 66701,
      "search_term": "Tanz Sport Club Gisingen-Brotdorf 1993 e.V.  Tanz SC Gisingen-Brotdorf 1993 e.V. Beckingen Saarland",
      "state": "Saarland"
    },
    {
      "acronym": "",
      "alias": "Tanz-Turnier-Club Duisburg e. V.",
      "category": "",
      "city": "Duisburg",
      "country": "Deutschland",
      "location": {
        "lon": 6.772407,
        "lat": 51.3835
      },
      "logo": "https://resources.verein.rewe.de/img/20240327081559771573800.jpg",
      "organization": "Tanz-Turnier-Club Duisburg e. V.",
      "partyID": 10000013677,
      "postalCode": 47249,
      "search_term": "Tanz-Turnier-Club Duisburg e. V.  Tanz-Turnier-Club Duisburg e. V. Duisburg Nordrhein-Westfalen",
      "state": "Nordrhein-Westfalen"
    },
    {
      "acronym": "",
      "alias": "Tanz Sport Freunde Mönchengladbach e. V.",
      "category": "",
      "city": "Mönchengladbach",
      "country": "Deutschland",
      "location": {
        "lon": 6.47937,
        "lat": 51.206304
      },
      "logo": "https://resources.verein.rewe.de/img/20240327081559771573800.jpg",
      "organization": "Tanz Sport Freunde Mönchengladbach e. V.",
      "partyID": 10000014937,
      "postalCode": 41065,
      "search_term": "Tanz Sport Freunde Mönchengladbach e. V.  Tanz Sport Freunde Mönchengladbach e. V. Mönchengladbach Nordrhein-Westfalen",
      "state": "Nordrhein-Westfalen"
    },
    {
      "acronym": "",
      "alias": "Tanz-Turnier-Club Oberhausen e. V.",
      "category": "",
      "city": "Oberhausen",
      "country": "Deutschland",
      "location": {
        "lon": 6.882505,
        "lat": 51.498726
      },
      "logo": "https://resources.verein.rewe.de/img/20240327081559771573800.jpg",
      "organization": "Tanz-Turnier-Club Oberhausen e. V.",
      "partyID": 10000015162,
      "postalCode": 46117,
      "search_term": "Tanz-Turnier-Club Oberhausen e. V.  Tanz-Turnier-Club Oberhausen e. V. Oberhausen Nordrhein-Westfalen",
      "state": "Nordrhein-Westfalen"
    },
    {
      "acronym": "",
      "alias": "Bielefelder Tanz-Club Metropol e. V.",
      "category": "",
      "city": "Bielefeld",
      "country": "Deutschland",
      "location": {
        "lon": 8.472865,
        "lat": 52.058082
      },
      "logo": "https://resources.verein.rewe.de/img/20240327081559771573800.jpg",
      "organization": "Bielefelder Tanz-Club Metropol e. V.",
      "partyID": 10000025236,
      "postalCode": 33619,
      "search_term": "Bielefelder Tanz-Club Metropol e. V.  Bielefelder Tanz-Club Metropol e. V. Bielefeld Nordrhein-Westfalen",
      "state": "Nordrhein-Westfalen"
    },
    {
      "acronym": "",
      "alias": "Tanz- und Sportclub RW Fellbach e.V.",
      "category": "",
      "city": "Fellbach",
      "country": "Deutschland",
      "location": {
        "lon": 9.272341,
        "lat": 48.813627
      },
      "logo": "https://resources.verein.rewe.de/img/20240327081559771573800.jpg",
      "organization": "Tanz- und Sportclub RW Fellbach e.V.",
      "partyID": 10000048970,
      "postalCode": 70734,
      "search_term": "Tanz- und Sportclub RW Fellbach e.V.  Tanz- und Sportclub RW Fellbach e.V. Fellbach Baden-Württemberg",
      "state": "Baden-Württemberg"
    },
    {
      "acronym": "",
      "alias": "Tanz- und SV Schönwalde 03 e.V.",
      "category": "",
      "city": "Schönwalde-Glien",
      "country": "Deutschland",
      "location": {
        "lon": 13.148294,
        "lat": 52.596373
      },
      "logo": "https://resources.verein.rewe.de/img/20240327081559771573800.jpg",
      "organization": "Tanz- und Sportverein Schönwalde 03 e.V.",
      "partyID": 10000072128,
      "postalCode": 14621,
      "search_term": "Tanz- und Sportverein Schönwalde 03 e.V.  Tanz- und SV Schönwalde 03 e.V. Schönwalde-Glien Brandenburg",
      "state": "Brandenburg"
    },
    {
      "acronym": "",
      "alias": "Tanz-SC Barth-Ribnitz e.V.",
      "category": "",
      "city": "Ribnitz-Damgarten",
      "country": "Deutschland",
      "location": {
        "lon": 12.441038,
        "lat": 54.210171
      },
      "logo": "https://resources.verein.rewe.de/img/20240327081559771573800.jpg",
      "organization": "Tanz-Sport-Club Barth-Ribnitz e.V.",
      "partyID": 10000074932,
      "postalCode": 18311,
      "search_term": "Tanz-Sport-Club Barth-Ribnitz e.V.  Tanz-SC Barth-Ribnitz e.V. Ribnitz-Damgarten Mecklenburg-Vorpommern",
      "state": "Mecklenburg-Vorpommern"
    },
    {
      "acronym": "",
      "alias": "Verein für Orientalischen Tanz Betzdorf e.V.",
      "category": "",
      "city": "Betzdorf",
      "country": "Deutschland",
      "location": {
        "lon": 7.8583204,
        "lat": 50.7892997
      },
      "logo": "https://resources.verein.rewe.de/img/20240327081559771573800.jpg",
      "organization": "Verein für Orientalischen Tanz Betzdorf e.V.",
      "partyID": 10000042256,
      "postalCode": 57518,
      "search_term": "Verein für Orientalischen Tanz Betzdorf e.V.  Verein für Orientalischen Tanz Betzdorf e.V. Betzdorf Rheinland-Pfalz",
      "state": "Rheinland-Pfalz"
    },
    {
      "acronym": "",
      "alias": "Tanz Sport Club Schwarz-Gold Aschaffenburg e.V.",
      "category": "",
      "city": "Aschaffenburg",
      "country": "Deutschland",
      "location": {
        "lon": 9.145733,
        "lat": 49.981669
      },
      "logo": "https://resources.verein.rewe.de/img/20240327081559771573800.jpg",
      "organization": "Tanz Sport Club Schwarz-Gold Aschaffenburg e.V.",
      "partyID": 10000063865,
      "postalCode": 63741,
      "search_term": "Tanz Sport Club Schwarz-Gold Aschaffenburg e.V.  Tanz Sport Club Schwarz-Gold Aschaffenburg e.V. Aschaffenburg Bayern",
      "state": "Bayern"
    },
    {
      "acronym": "",
      "alias": "Sport und Tanz Club Beweg Dich e.V.",
      "category": "",
      "city": "Würzburg",
      "country": "Deutschland",
      "location": {
        "lon": 9.957,
        "lat": 49.747377
      },
      "logo": "https://resources.verein.rewe.de/img/20240327081559771573800.jpg",
      "organization": "Sport und Tanz Club Beweg Dich e.V.",
      "partyID": 10000088647,
      "postalCode": 97084,
      "search_term": "Sport und Tanz Club Beweg Dich e.V.  Sport und Tanz Club Beweg Dich e.V. Würzburg Bayern",
      "state": "Bayern"
    },
    {
      "acronym": "",
      "alias": "Tanz SG Dance Better Goslar e.V.",
      "category": "",
      "city": "Lutter am Barenberge",
      "country": "Deutschland",
      "location": {
        "lon": 10.258772,
        "lat": 51.990571
      },
      "logo": "https://resources.verein.rewe.de/img/20240327081559771573800.jpg",
      "organization": "Tanz SG Dance Better Goslar e.V.",
      "partyID": 10000004039,
      "postalCode": 38729,
      "search_term": "Tanz SG Dance Better Goslar e.V.  Tanz SG Dance Better Goslar e.V. Lutter am Barenberge Niedersachsen",
      "state": "Niedersachsen"
    },
    {
      "acronym": "",
      "alias": "Tanz- und Sportgemeinschaft Emphasis Ennerich 1998 e.V.",
      "category": "",
      "city": "Runkel",
      "country": "Deutschland",
      "location": {
        "lon": 8.126763,
        "lat": 50.394765
      },
      "logo": "https://resources.verein.rewe.de/img/20240327081559771573800.jpg",
      "organization": "Tanz- und Sportgemeinschaft Emphasis Ennerich 1998 e.V.",
      "partyID": 10000033165,
      "postalCode": 65594,
      "search_term": "Tanz- und Sportgemeinschaft Emphasis Ennerich 1998 e.V.  Tanz- und Sportgemeinschaft Emphasis Ennerich 1998 e.V. Runkel Hessen",
      "state": "Hessen"
    },
    {
      "acronym": "",
      "alias": "Tanz- und Kampfkunst Miudinho Frankfurt e.V.",
      "category": "",
      "city": "Frankfurt am Main",
      "country": "Deutschland",
      "location": {
        "lon": 8.702162,
        "lat": 50.141565
      },
      "logo": "https://resources.verein.rewe.de/img/20240327081559771573800.jpg",
      "organization": "Tanz- und Kampfkunst Miudinho Frankfurt e.V.",
      "partyID": 10000034789,
      "postalCode": 60389,
      "search_term": "Tanz- und Kampfkunst Miudinho Frankfurt e.V.  Tanz- und Kampfkunst Miudinho Frankfurt e.V. Frankfurt am Main Hessen",
      "state": "Hessen"
    },
    {
      "acronym": "",
      "alias": "Verein f. Tanz- und Gymnastik Lorsch e.V.",
      "category": "",
      "city": "Lorsch",
      "country": "Deutschland",
      "location": {
        "lon": 8.565634,
        "lat": 49.643279
      },
      "logo": "https://resources.verein.rewe.de/img/20240327081559771573800.jpg",
      "organization": "Verein f. Tanz- und Gymnastik Lorsch e.V.",
      "partyID": 10000037402,
      "postalCode": 64653,
      "search_term": "Verein f. Tanz- und Gymnastik Lorsch e.V.  Verein f. Tanz- und Gymnastik Lorsch e.V. Lorsch Hessen",
      "state": "Hessen"
    },
    {
      "acronym": "",
      "alias": "1. Tanz-SC Rastatt 1996 e.V.",
      "category": "",
      "city": "Rastatt",
      "country": "Deutschland",
      "location": {
        "lon": 8.212363,
        "lat": 48.859266
      },
      "logo": "https://resources.verein.rewe.de/img/20240327081559771573800.jpg",
      "organization": "1. Tanz-Sport-Club Rastatt 1996 e.V.",
      "partyID": 10000054762,
      "postalCode": 76437,
      "search_term": "1. Tanz-Sport-Club Rastatt 1996 e.V.  1. Tanz-SC Rastatt 1996 e.V. Rastatt Baden-Württemberg",
      "state": "Baden-Württemberg"
    },
    {
      "acronym": "",
      "alias": "Sport- Tanz- und Ringverein 1899 Großkrotzenburg e.V.",
      "category": "",
      "city": "Großkrotzenburg",
      "country": "Deutschland",
      "location": {
        "lon": 8.986878299999999,
        "lat": 50.07867
      },
      "logo": "https://resources.verein.rewe.de/img/20240327081559771573800.jpg",
      "organization": "Sport- Tanz- und Ringverein 1899 Großkrotzenburg e.V.",
      "partyID": 10000035510,
      "postalCode": 63538,
      "search_term": "Sport- Tanz- und Ringverein 1899 Großkrotzenburg e.V.  Sport- Tanz- und Ringverein 1899 Großkrotzenburg e.V. Großkrotzenburg Hessen",
      "state": "Hessen"
    },
    {
      "acronym": "",
      "alias": "TSA der Tanz-Sport-Garde Veitshöchh e.V.",
      "category": "",
      "city": "Veitshöchheim",
      "country": "Deutschland",
      "location": {
        "lon": 9.8699079,
        "lat": 49.8309618
      },
      "logo": "https://resources.verein.rewe.de/img/10000065359/740085c21f9d40efbb9b9950aeb0a010.png",
      "organization": "Tanzsportabteilung der Tanz-Sport-Garde Veitshöchh e.V.",
      "partyID": 10000065359,
      "postalCode": 97209,
      "search_term": "Tanzsportabteilung der Tanz-Sport-Garde Veitshöchh e.V.  TSA der Tanz-Sport-Garde Veitshöchh e.V. Veitshöchheim Bayern",
      "state": "Bayern"
    },
    {
      "acronym": "",
      "alias": "1. Karlsfelder Jugend-Tanz-Sport-Club e.V",
      "category": "",
      "city": "Dachau",
      "country": "Deutschland",
      "location": {
        "lon": 11.4437711,
        "lat": 48.2413073
      },
      "logo": "https://resources.verein.rewe.de/img/20240327081559771573800.jpg",
      "organization": "1. Karlsfelder Jugend-Tanz-Sport-Club e.V",
      "partyID": 10000087652,
      "postalCode": 85221,
      "search_term": "1. Karlsfelder Jugend-Tanz-Sport-Club e.V  1. Karlsfelder Jugend-Tanz-Sport-Club e.V Dachau Bayern",
      "state": "Bayern"
    },
    {
      "acronym": "",
      "alias": "Tanz Art der etwas andere SV e.V.",
      "category": "",
      "city": "Hannover",
      "country": "Deutschland",
      "location": {
        "lon": 9.754429,
        "lat": 52.365927
      },
      "logo": "https://resources.verein.rewe.de/img/20240327081559771573800.jpg",
      "organization": "Tanz Art der etwas andere Sportverein e.V.",
      "partyID": 10000007069,
      "postalCode": 30171,
      "search_term": "Tanz Art der etwas andere Sportverein e.V.  Tanz Art der etwas andere SV e.V. Hannover Niedersachsen",
      "state": "Niedersachsen"
    },
    {
      "acronym": "",
      "alias": "Tanz- und Gymnastik Sport- Club Eschborn e.V.",
      "category": "",
      "city": "Eschborn",
      "country": "Deutschland",
      "location": {
        "lon": 8.567219,
        "lat": 50.147911
      },
      "logo": "https://resources.verein.rewe.de/img/20240327081559771573800.jpg",
      "organization": "Tanz- und Gymnastik Sport- Club Eschborn e.V.",
      "partyID": 10000036267,
      "postalCode": 65760,
      "search_term": "Tanz- und Gymnastik Sport- Club Eschborn e.V.  Tanz- und Gymnastik Sport- Club Eschborn e.V. Eschborn Hessen",
      "state": "Hessen"
    },
    {
      "acronym": "",
      "alias": "Tanz-und Turnier-Club GW Eichenau e.V.",
      "category": "",
      "city": "Eichenau",
      "country": "Deutschland",
      "location": {
        "lon": 11.324179,
        "lat": 48.175596
      },
      "logo": "https://resources.verein.rewe.de/img/20240327081559771573800.jpg",
      "organization": "Tanz-und Turnier-Club GW Eichenau e.V.",
      "partyID": 10000058046,
      "postalCode": 82223,
      "search_term": "Tanz-und Turnier-Club GW Eichenau e.V.  Tanz-und Turnier-Club GW Eichenau e.V. Eichenau Bayern",
      "state": "Bayern"
    },
    {
      "acronym": "",
      "alias": "Tanz- und Sportgemeinschaft Nord 1983 e. V.",
      "category": "",
      "city": "Berlin",
      "country": "Deutschland",
      "location": {
        "lon": 13.33937,
        "lat": 52.57321
      },
      "logo": "https://resources.verein.rewe.de/img/20240327081559771573800.jpg",
      "organization": "Tanz- und Sportgemeinschaft Nord 1983 e. V.",
      "partyID": 10000070569,
      "postalCode": 13407,
      "search_term": "Tanz- und Sportgemeinschaft Nord 1983 e. V.  Tanz- und Sportgemeinschaft Nord 1983 e. V. Berlin Berlin",
      "state": "Berlin"
    },
    {
      "acronym": "",
      "alias": "Tanz-Sport-Kreis Muldental Wilkau-Haßlau e.V.",
      "category": "",
      "city": "Zwickau",
      "country": "Deutschland",
      "location": {
        "lon": 12.528127,
        "lat": 50.718479
      },
      "logo": "https://resources.verein.rewe.de/img/20240327081559771573800.jpg",
      "organization": "Tanz-Sport-Kreis Muldental Wilkau-Haßlau e.V.",
      "partyID": 10000080342,
      "postalCode": 8066,
      "search_term": "Tanz-Sport-Kreis Muldental Wilkau-Haßlau e.V.  Tanz-Sport-Kreis Muldental Wilkau-Haßlau e.V. Zwickau Sachsen",
      "state": "Sachsen"
    },
    {
      "acronym": "",
      "alias": "Tanz-Turnier-Club Mönchengladbach-Rheydt e. V.",
      "category": "",
      "city": "Mönchengladbach",
      "country": "Deutschland",
      "location": {
        "lon": 6.394406,
        "lat": 51.198742
      },
      "logo": "https://resources.verein.rewe.de/img/20240327081559771573800.jpg",
      "organization": "Tanz-Turnier-Club Mönchengladbach-Rheydt e. V.",
      "partyID": 10000014812,
      "postalCode": 41068,
      "search_term": "Tanz-Turnier-Club Mönchengladbach-Rheydt e. V.  Tanz-Turnier-Club Mönchengladbach-Rheydt e. V. Mönchengladbach Nordrhein-Westfalen",
      "state": "Nordrhein-Westfalen"
    },
    {
      "acronym": "",
      "alias": "Tanz- und Gesellschaftsclub Blau-Gold Remscheid e.V.",
      "category": "",
      "city": "Remscheid",
      "country": "Deutschland",
      "location": [],
      "logo": "https://resources.verein.rewe.de/img/20240327081559771573800.jpg",
      "organization": "Tanz- und Gesellschaftsclub Blau-Gold Remscheid e.V.",
      "partyID": 10000015409,
      "postalCode": 42809,
      "search_term": "Tanz- und Gesellschaftsclub Blau-Gold Remscheid e.V.  Tanz- und Gesellschaftsclub Blau-Gold Remscheid e.V. Remscheid Nordrhein-Westfalen",
      "state": "Nordrhein-Westfalen"
    },
    {
      "acronym": "",
      "alias": "O Blue Bühnen, Tanz, Show Verein e.V.",
      "category": "",
      "city": "Prödel",
      "country": "Deutschland",
      "location": {
        "lon": 11.917843,
        "lat": 52.038006
      },
      "logo": "https://resources.verein.rewe.de/img/20240327081559771573800.jpg",
      "organization": "O Blue Bühnen, Tanz, Show Verein e.V.",
      "partyID": 10000081998,
      "postalCode": 39264,
      "search_term": "O Blue Bühnen, Tanz, Show Verein e.V.  O Blue Bühnen, Tanz, Show Verein e.V. Prödel Sachsen-Anhalt",
      "state": "Sachsen-Anhalt"
    },
    {
      "acronym": "",
      "alias": "Tanz mit uns - TTC Krefeld e. V.",
      "category": "",
      "city": "Krefeld",
      "country": "Deutschland",
      "location": {
        "lon": 6.566355,
        "lat": 51.32752
      },
      "logo": "https://resources.verein.rewe.de/img/20240327081559771573800.jpg",
      "organization": "Tanz mit uns - TTC Krefeld e. V.",
      "partyID": 10000014700,
      "postalCode": 47798,
      "search_term": "Tanz mit uns - TTC Krefeld e. V.  Tanz mit uns - TTC Krefeld e. V. Krefeld Nordrhein-Westfalen",
      "state": "Nordrhein-Westfalen"
    },
    {
      "acronym": "",
      "alias": "Tanz- und Gesellschaftsclub RW Porz e. V.",
      "category": "",
      "city": "Köln",
      "country": "Deutschland",
      "location": {
        "lon": 7.081234,
        "lat": 50.882341
      },
      "logo": "https://resources.verein.rewe.de/img/20240327081559771573800.jpg",
      "organization": "Tanz- und Gesellschaftsclub RW Porz e. V.",
      "partyID": 10000018726,
      "postalCode": 51145,
      "search_term": "Tanz- und Gesellschaftsclub RW Porz e. V.  Tanz- und Gesellschaftsclub RW Porz e. V. Köln Nordrhein-Westfalen",
      "state": "Nordrhein-Westfalen"
    },
    {
      "acronym": "",
      "alias": "Behinderten-Tanz-Sport-Gemeinschaft Lübbecke e. V.",
      "category": "",
      "city": "Hiddenhausen",
      "country": "Deutschland",
      "location": {
        "lon": 8.638866,
        "lat": 52.159907
      },
      "logo": "https://resources.verein.rewe.de/img/20240327081559771573800.jpg",
      "organization": "Behinderten-Tanz-Sport-Gemeinschaft Lübbecke e. V.",
      "partyID": 10000026799,
      "postalCode": 32120,
      "search_term": "Behinderten-Tanz-Sport-Gemeinschaft Lübbecke e. V.  Behinderten-Tanz-Sport-Gemeinschaft Lübbecke e. V. Hiddenhausen Nordrhein-Westfalen",
      "state": "Nordrhein-Westfalen"
    },
    {
      "acronym": "",
      "alias": "Tanz- und Freizeitclub Tausendfüßler Rheinland-Pfalz e.V.",
      "category": "",
      "city": "Mannheim",
      "country": "Deutschland",
      "location": {
        "lon": 8.479946,
        "lat": 49.46634
      },
      "logo": "https://resources.verein.rewe.de/img/20240327081559771573800.jpg",
      "organization": "Tanz- und Freizeitclub Tausendfüßler Rheinland-Pfalz e.V.",
      "partyID": 10000044292,
      "postalCode": 68199,
      "search_term": "Tanz- und Freizeitclub Tausendfüßler Rheinland-Pfalz e.V.  Tanz- und Freizeitclub Tausendfüßler Rheinland-Pfalz e.V. Mannheim Rheinland-Pfalz",
      "state": "Rheinland-Pfalz"
    },
    {
      "acronym": "",
      "alias": "Gymnastik-Spiel-Tanz-Club Bad Sachsa e.V.",
      "category": "",
      "city": "Bad Sachsa",
      "country": "Deutschland",
      "location": {
        "lon": 10.546689,
        "lat": 51.598864
      },
      "logo": "https://resources.verein.rewe.de/img/20240327081559771573800.jpg",
      "organization": "Gymnastik-Spiel-Tanz-Club Bad Sachsa e.V.",
      "partyID": 10000005024,
      "postalCode": 37441,
      "search_term": "Gymnastik-Spiel-Tanz-Club Bad Sachsa e.V.  Gymnastik-Spiel-Tanz-Club Bad Sachsa e.V. Bad Sachsa Niedersachsen",
      "state": "Niedersachsen"
    },
    {
      "acronym": "",
      "alias": "Tanz-Zentrum Odenwald TSC SW Cal e.V.",
      "category": "",
      "city": "Bad König",
      "country": "Deutschland",
      "location": {
        "lon": 9.011732,
        "lat": 49.728151
      },
      "logo": "https://resources.verein.rewe.de/img/20240327081559771573800.jpg",
      "organization": "Tanz-Zentrum Odenwald TSC SW Cal e.V.",
      "partyID": 10000037081,
      "postalCode": 64732,
      "search_term": "Tanz-Zentrum Odenwald TSC SW Cal e.V.  Tanz-Zentrum Odenwald TSC SW Cal e.V. Bad König Hessen",
      "state": "Hessen"
    },
    {
      "acronym": "",
      "alias": "Tanz-Turnier-Club BW Offenburg 1977 e.V.",
      "category": "",
      "city": "Offenburg",
      "country": "Deutschland",
      "location": {
        "lon": 7.941914,
        "lat": 48.500509
      },
      "logo": "https://resources.verein.rewe.de/img/20240327081559771573800.jpg",
      "organization": "Tanz-Turnier-Club BW Offenburg 1977 e.V.",
      "partyID": 10000054740,
      "postalCode": 77652,
      "search_term": "Tanz-Turnier-Club BW Offenburg 1977 e.V.  Tanz-Turnier-Club BW Offenburg 1977 e.V. Offenburg Baden-Württemberg",
      "state": "Baden-Württemberg"
    },
    {
      "acronym": "",
      "alias": "TuF Tanz- und Fitnessgruppe Limbach-Dorf e.V",
      "category": "",
      "city": "Schmelz-Dorf",
      "country": "Deutschland",
      "location": {
        "lon": 6.842155399999999,
        "lat": 49.4318941
      },
      "logo": "https://resources.verein.rewe.de/img/10000067901/9e24a20fe9fc4ddd8d93fe1469ff2fad.png",
      "organization": "TuF Tanz- und Fitnessgruppe Limbach-Dorf e.V",
      "partyID": 10000067901,
      "postalCode": 66839,
      "search_term": "TuF Tanz- und Fitnessgruppe Limbach-Dorf e.V  TuF Tanz- und Fitnessgruppe Limbach-Dorf e.V Schmelz-Dorf Saarland",
      "state": "Saarland"
    },
    {
      "acronym": "",
      "alias": "Mülheimer Tanz-Sport-Freunde e. V.",
      "category": "",
      "city": "Mülheim an der Ruhr",
      "country": "Deutschland",
      "location": {
        "lon": 6.905845,
        "lat": 51.428245
      },
      "logo": "https://resources.verein.rewe.de/img/20240327081559771573800.jpg",
      "organization": "Mülheimer Tanz-Sport-Freunde e. V.",
      "partyID": 10000015138,
      "postalCode": 45470,
      "search_term": "Mülheimer Tanz-Sport-Freunde e. V.  Mülheimer Tanz-Sport-Freunde e. V. Mülheim an der Ruhr Nordrhein-Westfalen",
      "state": "Nordrhein-Westfalen"
    },
    {
      "acronym": "",
      "alias": "Turnier-Tanz-Club Schwarz-Gold Moers e. V.",
      "category": "",
      "city": "Moers",
      "country": "Deutschland",
      "location": [],
      "logo": "https://resources.verein.rewe.de/img/20240327081559771573800.jpg",
      "organization": "Turnier-Tanz-Club Schwarz-Gold Moers e. V.",
      "partyID": 10000017724,
      "postalCode": 47413,
      "search_term": "Turnier-Tanz-Club Schwarz-Gold Moers e. V.  Turnier-Tanz-Club Schwarz-Gold Moers e. V. Moers Nordrhein-Westfalen",
      "state": "Nordrhein-Westfalen"
    },
    {
      "acronym": "",
      "alias": "Turnier-Tanz-Klub Grün-Gold Korntal-Münchingen e.V.",
      "category": "",
      "city": "Filderstadt",
      "country": "Deutschland",
      "location": {
        "lon": 9.208674,
        "lat": 48.649439
      },
      "logo": "https://resources.verein.rewe.de/img/20240327081559771573800.jpg",
      "organization": "Turnier-Tanz-Klub Grün-Gold Korntal-Münchingen e.V.",
      "partyID": 10000047635,
      "postalCode": 70794,
      "search_term": "Turnier-Tanz-Klub Grün-Gold Korntal-Münchingen e.V.  Turnier-Tanz-Klub Grün-Gold Korntal-Münchingen e.V. Filderstadt Baden-Württemberg",
      "state": "Baden-Württemberg"
    },
    {
      "acronym": "",
      "alias": "Tanz- und Sport-Club Take it easy e.V.",
      "category": "",
      "city": "Königs Wusterhausen",
      "country": "Deutschland",
      "location": {
        "lon": 13.6329832,
        "lat": 52.2666458
      },
      "logo": "https://resources.verein.rewe.de/img/10000071688/b2c4aa4106d3437b9a4787321b693494.png",
      "organization": "Tanz- und Sport-Club Take it easy e.V.",
      "partyID": 10000071688,
      "postalCode": 15711,
      "search_term": "Tanz- und Sport-Club Take it easy e.V.  Tanz- und Sport-Club Take it easy e.V. Königs Wusterhausen Brandenburg",
      "state": "Brandenburg"
    },
    {
      "acronym": "",
      "alias": "Tanz- und Sportclub Blau-Gold Eitorf e. V.",
      "category": "",
      "city": "Eitorf",
      "country": "Deutschland",
      "location": {
        "lon": 7.446311,
        "lat": 50.73447
      },
      "logo": "https://resources.verein.rewe.de/img/20240327081559771573800.jpg",
      "organization": "Tanz- und Sportclub Blau-Gold Eitorf e. V.",
      "partyID": 10000021969,
      "postalCode": 53783,
      "search_term": "Tanz- und Sportclub Blau-Gold Eitorf e. V.  Tanz- und Sportclub Blau-Gold Eitorf e. V. Eitorf Nordrhein-Westfalen",
      "state": "Nordrhein-Westfalen"
    },
    {
      "acronym": "",
      "alias": "Tanz-Sport-Club Am Ring Minden e. V.",
      "category": "",
      "city": "Minden",
      "country": "Deutschland",
      "location": {
        "lon": 8.900543,
        "lat": 52.282137
      },
      "logo": "https://resources.verein.rewe.de/img/20240327081559771573800.jpg",
      "organization": "Tanz-Sport-Club Am Ring Minden e. V.",
      "partyID": 10000026899,
      "postalCode": 32427,
      "search_term": "Tanz-Sport-Club Am Ring Minden e. V.  Tanz-Sport-Club Am Ring Minden e. V. Minden Nordrhein-Westfalen",
      "state": "Nordrhein-Westfalen"
    },
    {
      "acronym": "",
      "alias": "Jugend-Tanz Sport Club BW Leichlingen e. V.",
      "category": "",
      "city": "Leichlingen",
      "country": "Deutschland",
      "location": {
        "lon": 7.009907,
        "lat": 51.105137
      },
      "logo": "https://resources.verein.rewe.de/img/20240327081559771573800.jpg",
      "organization": "Jugend-Tanz Sport Club BW Leichlingen e. V.",
      "partyID": 10000021769,
      "postalCode": 42799,
      "search_term": "Jugend-Tanz Sport Club BW Leichlingen e. V.  Jugend-Tanz Sport Club BW Leichlingen e. V. Leichlingen Nordrhein-Westfalen",
      "state": "Nordrhein-Westfalen"
    },
    {
      "acronym": "",
      "alias": "Tanz und Gymnastik Club 1997 Groß-Zimmern e.V.",
      "category": "",
      "city": "Groß-Zimmern",
      "country": "Deutschland",
      "location": {
        "lon": 8.831595,
        "lat": 49.872043
      },
      "logo": "https://resources.verein.rewe.de/img/20240327081559771573800.jpg",
      "organization": "Tanz und Gymnastik Club 1997 Groß-Zimmern e.V.",
      "partyID": 10000036935,
      "postalCode": 64846,
      "search_term": "Tanz und Gymnastik Club 1997 Groß-Zimmern e.V.  Tanz und Gymnastik Club 1997 Groß-Zimmern e.V. Groß-Zimmern Hessen",
      "state": "Hessen"
    },
    {
      "acronym": "",
      "alias": "Tanz-Sport-Gemeinschaft Blau-Gold Siegen e. V.",
      "category": "",
      "city": "Siegen",
      "country": "Deutschland",
      "location": {
        "lon": 8.008846199999999,
        "lat": 50.9206257
      },
      "logo": "https://resources.verein.rewe.de/img/10000030872/0c3265815d9e4cfc9bfa8c924bbc9ac1.png",
      "organization": "Tanz-Sport-Gemeinschaft Blau-Gold Siegen e. V.",
      "partyID": 10000030872,
      "postalCode": 57078,
      "search_term": "Tanz-Sport-Gemeinschaft Blau-Gold Siegen e. V.  Tanz-Sport-Gemeinschaft Blau-Gold Siegen e. V. Siegen Nordrhein-Westfalen",
      "state": "Nordrhein-Westfalen"
    },
    {
      "acronym": "",
      "alias": "Jazz-Nord Centrum für Gymnastik Tanz Freizeit Spor e.V.",
      "category": "",
      "city": "Hamburg",
      "country": "Deutschland",
      "location": {
        "lon": 10.124246,
        "lat": 53.670835
      },
      "logo": "https://resources.verein.rewe.de/img/20240327081559771573800.jpg",
      "organization": "Jazz-Nord Centrum für Gymnastik Tanz Freizeit Spor e.V.",
      "partyID": 10000002986,
      "postalCode": 22395,
      "search_term": "Jazz-Nord Centrum für Gymnastik Tanz Freizeit Spor e.V.  Jazz-Nord Centrum für Gymnastik Tanz Freizeit Spor e.V. Hamburg Hamburg",
      "state": "Hamburg"
    },
    {
      "acronym": "",
      "alias": "Amateur-Tanz-Club Oranien Elz- Limburg-Bad Camberg e.V.",
      "category": "",
      "city": "Elz",
      "country": "Deutschland",
      "location": {
        "lon": 8.036611,
        "lat": 50.413156
      },
      "logo": "https://resources.verein.rewe.de/img/20240327081559771573800.jpg",
      "organization": "Amateur-Tanz-Club Oranien Elz- Limburg-Bad Camberg e.V.",
      "partyID": 10000033100,
      "postalCode": 65604,
      "search_term": "Amateur-Tanz-Club Oranien Elz- Limburg-Bad Camberg e.V.  Amateur-Tanz-Club Oranien Elz- Limburg-Bad Camberg e.V. Elz Hessen",
      "state": "Hessen"
    },
    {
      "acronym": "",
      "alias": "Amerner Senioren SV für Gymnastik-Tanz und Freude e.V.",
      "category": "",
      "city": "Schwalmtal",
      "country": "Deutschland",
      "location": {
        "lon": 6.244647,
        "lat": 51.229167
      },
      "logo": "https://resources.verein.rewe.de/img/20240327081559771573800.jpg",
      "organization": "Amerner Senioren SV für Gymnastik-Tanz und Freude e.V.",
      "partyID": 10000017359,
      "postalCode": 41366,
      "search_term": "Amerner Senioren SV für Gymnastik-Tanz und Freude e.V.  Amerner Senioren SV für Gymnastik-Tanz und Freude e.V. Schwalmtal Nordrhein-Westfalen",
      "state": "Nordrhein-Westfalen"
    },
    {
      "acronym": "",
      "alias": "Rock n Roll Tanz Zentrum 8 nach 6 e.V.",
      "category": "",
      "city": "Bad Homburg",
      "country": "Deutschland",
      "location": {
        "lon": 8.598558,
        "lat": 50.238719
      },
      "logo": "https://resources.verein.rewe.de/img/20240327081559771573800.jpg",
      "organization": "Rock n Roll Tanz Zentrum 8 nach 6 e.V.",
      "partyID": 10000036482,
      "postalCode": 61350,
      "search_term": "Rock n Roll Tanz Zentrum 8 nach 6 e.V.  Rock n Roll Tanz Zentrum 8 nach 6 e.V. Bad Homburg Hessen",
      "state": "Hessen"
    },
    {
      "acronym": "",
      "alias": "Tanz- und Turnier-Club Rot-Gold Köln e. V.",
      "category": "",
      "city": "Köln",
      "country": "Deutschland",
      "location": {
        "lon": 6.880457,
        "lat": 50.966358
      },
      "logo": "https://resources.verein.rewe.de/img/20240327081559771573800.jpg",
      "organization": "Tanz- und Turnier-Club Rot-Gold Köln e. V.",
      "partyID": 10000018779,
      "postalCode": 50829,
      "search_term": "Tanz- und Turnier-Club Rot-Gold Köln e. V.  Tanz- und Turnier-Club Rot-Gold Köln e. V. Köln Nordrhein-Westfalen",
      "state": "Nordrhein-Westfalen"
    },
    {
      "acronym": "",
      "alias": "TC Rotherbaum e.V.",
      "category": "",
      "city": "Hamburg",
      "country": "Deutschland",
      "location": {
        "lon": 9.881068,
        "lat": 53.615499
      },
      "logo": "https://resources.verein.rewe.de/img/20240327081559771573800.jpg",
      "organization": "Tanz-Club Rotherbaum e.V.",
      "partyID": 10000003285,
      "postalCode": 22523,
      "search_term": "Tanz-Club Rotherbaum e.V.  TC Rotherbaum e.V. Hamburg Hamburg",
      "state": "Hamburg"
    },
    {
      "acronym": "",
      "alias": "TSC Fuhrberg e.V.",
      "category": "",
      "city": "Burgwedel",
      "country": "Deutschland",
      "location": {
        "lon": 9.841277,
        "lat": 52.562434
      },
      "logo": "https://resources.verein.rewe.de/img/20240327081559771573800.jpg",
      "organization": "Tanz-SC Fuhrberg e.V.",
      "partyID": 10000006225,
      "postalCode": 30938,
      "search_term": "Tanz-SC Fuhrberg e.V.  TSC Fuhrberg e.V. Burgwedel Niedersachsen",
      "state": "Niedersachsen"
    },
    {
      "acronym": "",
      "alias": "Neustädter TC e.V.",
      "category": "",
      "city": "Neustadt",
      "country": "Deutschland",
      "location": {
        "lon": 10.802705,
        "lat": 54.107161
      },
      "logo": "https://resources.verein.rewe.de/img/20240327081559771573800.jpg",
      "organization": "Neustädter Tanz-Club e.V.",
      "partyID": 10000002287,
      "postalCode": 23722,
      "search_term": "Neustädter Tanz-Club e.V.  Neustädter TC e.V. Neustadt Schleswig-Holstein",
      "state": "Schleswig-Holstein"
    },
    {
      "acronym": "",
      "alias": "TTC Oldbg. e.V.",
      "category": "",
      "city": "Oldenburg",
      "country": "Deutschland",
      "location": {
        "lon": 8.217526,
        "lat": 53.143364
      },
      "logo": "https://resources.verein.rewe.de/img/20240327081559771573800.jpg",
      "organization": "Tanz-Turnier-Club Oldbg. e.V.",
      "partyID": 10000011825,
      "postalCode": 26122,
      "search_term": "Tanz-Turnier-Club Oldbg. e.V.  TTC Oldbg. e.V. Oldenburg Niedersachsen",
      "state": "Niedersachsen"
    },
    {
      "acronym": "",
      "alias": "TC Halsenbach e.V.",
      "category": "",
      "city": "Gondershausen",
      "country": "Deutschland",
      "location": {
        "lon": 7.485833,
        "lat": 50.160072
      },
      "logo": "https://resources.verein.rewe.de/img/20240327081559771573800.jpg",
      "organization": "Tanz-Club Halsenbach e.V.",
      "partyID": 10000041818,
      "postalCode": 56283,
      "search_term": "Tanz-Club Halsenbach e.V.  TC Halsenbach e.V. Gondershausen Rheinland-Pfalz",
      "state": "Rheinland-Pfalz"
    },
    {
      "acronym": "",
      "alias": "Tanz-Turnier-Club Mülheim a. d. Ruhr e. V.",
      "category": "",
      "city": "Mülheim an der Ruhr",
      "country": "Deutschland",
      "location": {
        "lon": 6.918944,
        "lat": 51.414877
      },
      "logo": "https://resources.verein.rewe.de/img/20240327081559771573800.jpg",
      "organization": "Tanz-Turnier-Club Mülheim a. d. Ruhr e. V.",
      "partyID": 10000015039,
      "postalCode": 45470,
      "search_term": "Tanz-Turnier-Club Mülheim a. d. Ruhr e. V.  Tanz-Turnier-Club Mülheim a. d. Ruhr e. V. Mülheim an der Ruhr Nordrhein-Westfalen",
      "state": "Nordrhein-Westfalen"
    },
    {
      "acronym": "",
      "alias": "TTC Atlantic e.V.",
      "category": "",
      "city": "Hamburg",
      "country": "Deutschland",
      "location": {
        "lon": 9.963669,
        "lat": 53.552202
      },
      "logo": "https://resources.verein.rewe.de/img/20240327081559771573800.jpg",
      "organization": "Tanz-Turnier-Club Atlantic e.V.",
      "partyID": 10000003288,
      "postalCode": 20359,
      "search_term": "Tanz-Turnier-Club Atlantic e.V.  TTC Atlantic e.V. Hamburg Hamburg",
      "state": "Hamburg"
    },
    {
      "acronym": "",
      "alias": "TC Konstanz e.V.",
      "category": "",
      "city": "Konstanz",
      "country": "Deutschland",
      "location": {
        "lon": 9.1562,
        "lat": 47.675964
      },
      "logo": "https://resources.verein.rewe.de/img/20240327081559771573800.jpg",
      "organization": "Tanz-Club Konstanz e.V.",
      "partyID": 10000054737,
      "postalCode": 78467,
      "search_term": "Tanz-Club Konstanz e.V.  TC Konstanz e.V. Konstanz Baden-Württemberg",
      "state": "Baden-Württemberg"
    },
    {
      "acronym": "",
      "alias": "TC Bebra 1991 e.V.",
      "category": "",
      "city": "Bebra",
      "country": "Deutschland",
      "location": {
        "lon": 9.805959,
        "lat": 50.97274
      },
      "logo": "https://resources.verein.rewe.de/img/20240327081559771573800.jpg",
      "organization": "Tanz-Club Bebra 1991 e.V.",
      "partyID": 10000034350,
      "postalCode": 36179,
      "search_term": "Tanz-Club Bebra 1991 e.V.  TC Bebra 1991 e.V. Bebra Hessen",
      "state": "Hessen"
    },
    {
      "acronym": "",
      "alias": "ATC Freiberg e.V.",
      "category": "",
      "city": "Ingersheim",
      "country": "Deutschland",
      "location": {
        "lon": 9.188628,
        "lat": 48.962383
      },
      "logo": "https://resources.verein.rewe.de/img/20240327081559771573800.jpg",
      "organization": "Amateur-Tanz-Club Freiberg e.V.",
      "partyID": 10000047662,
      "postalCode": 74379,
      "search_term": "Amateur-Tanz-Club Freiberg e.V.  ATC Freiberg e.V. Ingersheim Baden-Württemberg",
      "state": "Baden-Württemberg"
    },
    {
      "acronym": "",
      "alias": "TC Luckau e.V.",
      "category": "",
      "city": "Schönwald b Lübben",
      "country": "Deutschland",
      "location": {
        "lon": 13.765492,
        "lat": 51.978582
      },
      "logo": "https://resources.verein.rewe.de/img/20240327081559771573800.jpg",
      "organization": "Tanz-Club Luckau e.V.",
      "partyID": 10000071759,
      "postalCode": 15910,
      "search_term": "Tanz-Club Luckau e.V.  TC Luckau e.V. Schönwald b Lübben Brandenburg",
      "state": "Brandenburg"
    },
    {
      "acronym": "",
      "alias": "Einbecker TC 06 e.V.",
      "category": "",
      "city": "Einbeck",
      "country": "Deutschland",
      "location": {
        "lon": 9.796943,
        "lat": 51.83254
      },
      "logo": "https://resources.verein.rewe.de/img/20240327081559771573800.jpg",
      "organization": "Einbecker Tanz-Club 06 e.V.",
      "partyID": 10000004668,
      "postalCode": 37574,
      "search_term": "Einbecker Tanz-Club 06 e.V.  Einbecker TC 06 e.V. Einbeck Niedersachsen",
      "state": "Niedersachsen"
    },
    {
      "acronym": "",
      "alias": "TSC Silberpfeil Pirna e.V.",
      "category": "",
      "city": "Pirna",
      "country": "Deutschland",
      "location": {
        "lon": 13.950163,
        "lat": 50.934657
      },
      "logo": "https://resources.verein.rewe.de/img/20240327081559771573800.jpg",
      "organization": "Tanz-SC Silberpfeil Pirna e.V.",
      "partyID": 10000079581,
      "postalCode": 1796,
      "search_term": "Tanz-SC Silberpfeil Pirna e.V.  TSC Silberpfeil Pirna e.V. Pirna Sachsen",
      "state": "Sachsen"
    },
    {
      "acronym": "",
      "alias": "Tanz-Sport-Club Imperial Mülheim a. d. Ruhr e. V.",
      "category": "",
      "city": "Mülheim an der Ruhr",
      "country": "Deutschland",
      "location": {
        "lon": 6.912827,
        "lat": 51.438774
      },
      "logo": "https://resources.verein.rewe.de/img/20240327081559771573800.jpg",
      "organization": "Tanz-Sport-Club Imperial Mülheim a. d. Ruhr e. V.",
      "partyID": 10000015063,
      "postalCode": 45472,
      "search_term": "Tanz-Sport-Club Imperial Mülheim a. d. Ruhr e. V.  Tanz-Sport-Club Imperial Mülheim a. d. Ruhr e. V. Mülheim an der Ruhr Nordrhein-Westfalen",
      "state": "Nordrhein-Westfalen"
    },
    {
      "acronym": "",
      "alias": "TSC Lahnstein Oranien e.V.",
      "category": "",
      "city": "Lahnstein",
      "country": "Deutschland",
      "location": [],
      "logo": "https://resources.verein.rewe.de/img/20240327081559771573800.jpg",
      "organization": "Tanz-SC Lahnstein Oranien e.V.",
      "partyID": 10000041623,
      "postalCode": 56104,
      "search_term": "Tanz-SC Lahnstein Oranien e.V.  TSC Lahnstein Oranien e.V. Lahnstein Rheinland-Pfalz",
      "state": "Rheinland-Pfalz"
    },
    {
      "acronym": "",
      "alias": "TC Trier Fantasy e.V.",
      "category": "",
      "city": "Trier",
      "country": "Deutschland",
      "location": {
        "lon": 6.656032,
        "lat": 49.761485
      },
      "logo": "https://resources.verein.rewe.de/img/20240327081559771573800.jpg",
      "organization": "Tanz-Club Trier Fantasy e.V.",
      "partyID": 10000041999,
      "postalCode": 54295,
      "search_term": "Tanz-Club Trier Fantasy e.V.  TC Trier Fantasy e.V. Trier Rheinland-Pfalz",
      "state": "Rheinland-Pfalz"
    },
    {
      "acronym": "",
      "alias": "GuT bewegt e. V.",
      "category": "",
      "city": "Berlin",
      "country": "Deutschland",
      "location": {
        "lon": 13.385619,
        "lat": 52.486865
      },
      "logo": "https://resources.verein.rewe.de/img/20240327081559771573800.jpg",
      "organization": "Gymnastik und Tanz bewegt e. V.",
      "partyID": 10000069713,
      "postalCode": 10965,
      "search_term": "Gymnastik und Tanz bewegt e. V.  GuT bewegt e. V. Berlin Berlin",
      "state": "Berlin"
    },
    {
      "acronym": "",
      "alias": "TSC Mayen Calypso e.V.",
      "category": "",
      "city": "Trimbs",
      "country": "Deutschland",
      "location": {
        "lon": 7.294421,
        "lat": 50.324599
      },
      "logo": "https://resources.verein.rewe.de/img/20240327081559771573800.jpg",
      "organization": "Tanz-SC Mayen Calypso e.V.",
      "partyID": 10000041619,
      "postalCode": 56753,
      "search_term": "Tanz-SC Mayen Calypso e.V.  TSC Mayen Calypso e.V. Trimbs Rheinland-Pfalz",
      "state": "Rheinland-Pfalz"
    },
    {
      "acronym": "",
      "alias": "TSV Mannheim-Rheinau e.V.",
      "category": "",
      "city": "Mannheim",
      "country": "Deutschland",
      "location": {
        "lon": 8.532311,
        "lat": 49.4295
      },
      "logo": "https://resources.verein.rewe.de/img/20240327081559771573800.jpg",
      "organization": "Tanz-Sportverein Mannheim-Rheinau e.V.",
      "partyID": 10000051763,
      "postalCode": 68219,
      "search_term": "Tanz-Sportverein Mannheim-Rheinau e.V.  TSV Mannheim-Rheinau e.V. Mannheim Baden-Württemberg",
      "state": "Baden-Württemberg"
    },
    {
      "acronym": "",
      "alias": "Jazz TC Dachsberg e.V.",
      "category": "",
      "city": "Dachsberg (Südschwarzwald)",
      "country": "Deutschland",
      "location": {
        "lon": 8.170825,
        "lat": 47.750647
      },
      "logo": "https://resources.verein.rewe.de/img/20240327081559771573800.jpg",
      "organization": "Jazz Tanz-Club Dachsberg e.V.",
      "partyID": 10000055564,
      "postalCode": 79837,
      "search_term": "Jazz Tanz-Club Dachsberg e.V.  Jazz TC Dachsberg e.V. Dachsberg (Südschwarzwald) Baden-Württemberg",
      "state": "Baden-Württemberg"
    },
    {
      "acronym": "",
      "alias": "Hungener TC Blau-Gelb e.V.",
      "category": "",
      "city": "Hungen",
      "country": "Deutschland",
      "location": {
        "lon": 8.906759,
        "lat": 50.473624
      },
      "logo": "https://resources.verein.rewe.de/img/20240327081559771573800.jpg",
      "organization": "Hungener Tanz-Club Blau-Gelb e.V.",
      "partyID": 10000032540,
      "postalCode": 35410,
      "search_term": "Hungener Tanz-Club Blau-Gelb e.V.  Hungener TC Blau-Gelb e.V. Hungen Hessen",
      "state": "Hessen"
    },
    {
      "acronym": "",
      "alias": "TC Blau-Orange Wiesbaden e.V.",
      "category": "",
      "city": "Wiesbaden",
      "country": "Deutschland",
      "location": {
        "lon": 8.232926,
        "lat": 50.050817
      },
      "logo": "https://resources.verein.rewe.de/img/20240327081559771573800.jpg",
      "organization": "Tanz-Club Blau-Orange Wiesbaden e.V.",
      "partyID": 10000037810,
      "postalCode": 65203,
      "search_term": "Tanz-Club Blau-Orange Wiesbaden e.V.  TC Blau-Orange Wiesbaden e.V. Wiesbaden Hessen",
      "state": "Hessen"
    },
    {
      "acronym": "",
      "alias": "Turnier TC Steps Siegburg e.V.",
      "category": "",
      "city": "Siegburg",
      "country": "Deutschland",
      "location": {
        "lon": 7.20755,
        "lat": 50.797464
      },
      "logo": "https://resources.verein.rewe.de/img/20240327081559771573800.jpg",
      "organization": "Turnier Tanz Club Steps Siegburg e.V.",
      "partyID": 10000022292,
      "postalCode": 53721,
      "search_term": "Turnier Tanz Club Steps Siegburg e.V.  Turnier TC Steps Siegburg e.V. Siegburg Nordrhein-Westfalen",
      "state": "Nordrhein-Westfalen"
    },
    {
      "acronym": "",
      "alias": "TC Idar-Oberstein ET e.V.",
      "category": "",
      "city": "Idar-Oberstein",
      "country": "Deutschland",
      "location": [],
      "logo": "https://resources.verein.rewe.de/img/20240327081559771573800.jpg",
      "organization": "Tanz-Club Idar-Oberstein ET e.V.",
      "partyID": 10000041197,
      "postalCode": 55714,
      "search_term": "Tanz-Club Idar-Oberstein ET e.V.  TC Idar-Oberstein ET e.V. Idar-Oberstein Rheinland-Pfalz",
      "state": "Rheinland-Pfalz"
    },
    {
      "acronym": "",
      "alias": "TTC Rot-Gold Tübingen e.V.",
      "category": "",
      "city": "Tübingen",
      "country": "Deutschland",
      "location": {
        "lon": 9.0632799,
        "lat": 48.5102888
      },
      "logo": "https://resources.verein.rewe.de/img/10000050238/35caf20b23564b1db004a7cd156fa230.png",
      "organization": "Tanz-Turnier-Club Rot-Gold Tübingen e.V.",
      "partyID": 10000050238,
      "postalCode": 72072,
      "search_term": "Tanz-Turnier-Club Rot-Gold Tübingen e.V.  TTC Rot-Gold Tübingen e.V. Tübingen Baden-Württemberg",
      "state": "Baden-Württemberg"
    },
    {
      "acronym": "",
      "alias": "Turnier-TC Fortis Nova Maintal e.V.",
      "category": "",
      "city": "Maintal",
      "country": "Deutschland",
      "location": {
        "lon": 8.8558599,
        "lat": 50.17082730000001
      },
      "logo": "https://resources.verein.rewe.de/img/10000035727/17b4baae0a3b4985aedd1198d2495b0a.png",
      "organization": "Turnier-Tanz-Club Fortis Nova Maintal e.V.",
      "partyID": 10000035727,
      "postalCode": 63477,
      "search_term": "Turnier-Tanz-Club Fortis Nova Maintal e.V.  Turnier-TC Fortis Nova Maintal e.V. Maintal Hessen",
      "state": "Hessen"
    },
    {
      "acronym": "",
      "alias": "Top-TC Rot-Gold Schwäbisch Hall e.V.",
      "category": "",
      "city": "Schwäbisch Hall",
      "country": "Deutschland",
      "location": {
        "lon": 9.729971,
        "lat": 49.116815
      },
      "logo": "https://resources.verein.rewe.de/img/20240327081559771573800.jpg",
      "organization": "Top-Tanz-Club Rot-Gold Schwäbisch Hall e.V.",
      "partyID": 10000049611,
      "postalCode": 74523,
      "search_term": "Top-Tanz-Club Rot-Gold Schwäbisch Hall e.V.  Top-TC Rot-Gold Schwäbisch Hall e.V. Schwäbisch Hall Baden-Württemberg",
      "state": "Baden-Württemberg"
    }
  ],
  "success": true,
  "message": "success"
}